Welcome to NHANES AWS project!!
Messages pushed to the queue successfully
Please wait till we fetch the running time and pricing estimates for your algorithm.
Do not refresh or press the back button of your browser.
Initializing 100 worker machine(s) for processing...
T = Total Machines, C = Configuring, S3D = S3 Download, E = Executing, S3U = S3 Upload, F = Finished
--------------------------------------------------------------------------------------
Job ID : icjIxQwUHQ     T : 1   C : 0   S3D : 0   E : 0   S3U : 0   F : 100
--------------------------------------------------------------------------------------
--------------------------------------------------------------------------------------
Server Id : i-09550f948aef22eab
Started at : Mon Nov 27 2017 20:54:19 GMT-0500 (EST)
Configuration completed in 50.657 seconds
S3 download completed in 64.212 seconds
File Execution completed in 6913.635 seconds
S3 upload completed in 0.785 seconds
Terminated at : Mon Nov 27 2017 22:51:29 GMT-0500 (EST)
Total time : 7029.455 seconds
Baseline Completed
--------------------------------------------------------------------------------------
--------------------------------------------------------------------------------------
Server Id : i-0d018f87ef7a86e99
Started at : Mon Nov 27 2017 20:54:22 GMT-0500 (EST)
Configuration completed in 45.007 seconds
S3 download completed in 87.197 seconds
File Execution completed in 6817.335 seconds
S3 upload completed in 2.221 seconds
Terminated at : Mon Nov 27 2017 22:50:14 GMT-0500 (EST)
Total time : 6951.926 seconds
Baseline Completed
--------------------------------------------------------------------------------------
--------------------------------------------------------------------------------------
Server Id : i-09163bd974c71e60d
Started at : Mon Nov 27 2017 20:54:22 GMT-0500 (EST)
Configuration completed in 45.247 seconds
S3 download completed in 57.187 seconds
File Execution completed in 7276.658 seconds
S3 upload completed in 0.818 seconds
Terminated at : Mon Nov 27 2017 22:57:22 GMT-0500 (EST)
Total time : 7380.071 seconds
Baseline Completed
--------------------------------------------------------------------------------------
--------------------------------------------------------------------------------------
Server Id : i-0b3b869433c75f56a
Started at : Mon Nov 27 2017 20:54:22 GMT-0500 (EST)
Configuration completed in 45.545 seconds
S3 download completed in 56.106 seconds
File Execution completed in 6946.194 seconds
S3 upload completed in 0.97 seconds
Terminated at : Mon Nov 27 2017 22:51:51 GMT-0500 (EST)
Total time : 7048.982 seconds
Baseline Completed
--------------------------------------------------------------------------------------
--------------------------------------------------------------------------------------
Server Id : i-03e3c6d84c3d01d8e
Started at : Mon Nov 27 2017 20:54:23 GMT-0500 (EST)
Configuration completed in 45.381 seconds
S3 download completed in 58.711 seconds
File Execution completed in 6910.922 seconds
S3 upload completed in 1.085 seconds
Terminated at : Mon Nov 27 2017 22:51:19 GMT-0500 (EST)
Total time : 7016.268 seconds
Baseline Completed
--------------------------------------------------------------------------------------
--------------------------------------------------------------------------------------
Server Id : i-0387854d4fa003137
Started at : Mon Nov 27 2017 20:54:23 GMT-0500 (EST)
Configuration completed in 52.301 seconds
S3 download completed in 65.468 seconds
File Execution completed in 7359.252 seconds
S3 upload completed in 0.857 seconds
Terminated at : Mon Nov 27 2017 22:59:01 GMT-0500 (EST)
Total time : 7478.05 seconds
Baseline Completed
--------------------------------------------------------------------------------------
--------------------------------------------------------------------------------------
Server Id : i-06e2fab5afee754c2
Started at : Mon Nov 27 2017 20:54:26 GMT-0500 (EST)
Configuration completed in 41.042 seconds
S3 download completed in 62.779 seconds
File Execution completed in 7048.298 seconds
S3 upload completed in 0.708 seconds
Terminated at : Mon Nov 27 2017 22:53:39 GMT-0500 (EST)
Total time : 7152.989 seconds
Baseline Completed
--------------------------------------------------------------------------------------
--------------------------------------------------------------------------------------
Server Id : i-040047287ab3b34fb
Started at : Mon Nov 27 2017 20:54:27 GMT-0500 (EST)
Configuration completed in 40.518 seconds
S3 download completed in 61.631 seconds
File Execution completed in 7580.097 seconds
S3 upload completed in 0.764 seconds
Terminated at : Mon Nov 27 2017 23:02:30 GMT-0500 (EST)
Total time : 7683.177 seconds
Baseline Completed
--------------------------------------------------------------------------------------
--------------------------------------------------------------------------------------
Server Id : i-0245101ed641fa3f9
Started at : Mon Nov 27 2017 20:54:27 GMT-0500 (EST)
Configuration completed in 40.966 seconds
S3 download completed in 62.054 seconds
File Execution completed in 7763.16 seconds
S3 upload completed in 0.802 seconds
Terminated at : Mon Nov 27 2017 23:05:34 GMT-0500 (EST)
Total time : 7867.149 seconds
Baseline Completed
--------------------------------------------------------------------------------------
--------------------------------------------------------------------------------------
Server Id : i-00107e5dcb720cdb5
Started at : Mon Nov 27 2017 20:54:27 GMT-0500 (EST)
Configuration completed in 40.803 seconds
S3 download completed in 60.959 seconds
File Execution completed in 7019.97 seconds
S3 upload completed in 0.864 seconds
Terminated at : Mon Nov 27 2017 22:53:10 GMT-0500 (EST)
Total time : 7122.762 seconds
Baseline Completed
--------------------------------------------------------------------------------------
--------------------------------------------------------------------------------------
Server Id : i-007a243bcc48ba614
Started at : Mon Nov 27 2017 20:54:27 GMT-0500 (EST)
Configuration completed in 40.494 seconds
S3 download completed in 61.373 seconds
File Execution completed in 7701.406 seconds
S3 upload completed in 1.119 seconds
Terminated at : Mon Nov 27 2017 23:04:32 GMT-0500 (EST)
Total time : 7804.557 seconds
Baseline Completed
--------------------------------------------------------------------------------------
--------------------------------------------------------------------------------------
Server Id : i-0dc03951c4fe3ab1f
Started at : Mon Nov 27 2017 20:54:31 GMT-0500 (EST)
Configuration completed in 36.906 seconds
S3 download completed in 58.926 seconds
File Execution completed in 6986.066 seconds
S3 upload completed in 1.234 seconds
Terminated at : Mon Nov 27 2017 22:52:34 GMT-0500 (EST)
Total time : 7083.296 seconds
Baseline Completed
--------------------------------------------------------------------------------------
--------------------------------------------------------------------------------------
Server Id : i-0a7fef2d2135cbe51
Started at : Mon Nov 27 2017 20:54:31 GMT-0500 (EST)
Configuration completed in 36.326 seconds
S3 download completed in 56.05 seconds
File Execution completed in 5814.903 seconds
S3 upload completed in 0.844 seconds
Terminated at : Mon Nov 27 2017 22:33:00 GMT-0500 (EST)
Total time : 5908.291 seconds
Baseline Completed
--------------------------------------------------------------------------------------
--------------------------------------------------------------------------------------
Server Id : i-042b6c3a02a70313f
Started at : Mon Nov 27 2017 20:54:31 GMT-0500 (EST)
Configuration completed in 36.523 seconds
S3 download completed in 112.872 seconds
File Execution completed in 7091.302 seconds
S3 upload completed in 1.121 seconds
Terminated at : Mon Nov 27 2017 22:55:13 GMT-0500 (EST)
Total time : 7241.984 seconds
Baseline Completed
--------------------------------------------------------------------------------------
--------------------------------------------------------------------------------------
Server Id : i-05829f5bb4adaeda6
Started at : Mon Nov 27 2017 20:54:31 GMT-0500 (EST)
Configuration completed in 35.994 seconds
S3 download completed in 58.952 seconds
File Execution completed in 6891.295 seconds
S3 upload completed in 0.779 seconds
Terminated at : Mon Nov 27 2017 22:50:59 GMT-0500 (EST)
Total time : 6987.183 seconds
Baseline Completed
--------------------------------------------------------------------------------------
--------------------------------------------------------------------------------------
Server Id : i-0e5a773a8c38a8d1d
Started at : Mon Nov 27 2017 20:54:32 GMT-0500 (EST)
Configuration completed in 37.216 seconds
S3 download completed in 63.583 seconds
File Execution completed in 7381.792 seconds
S3 upload completed in 1.418 seconds
Terminated at : Mon Nov 27 2017 22:59:16 GMT-0500 (EST)
Total time : 7484.18 seconds
Baseline Completed
--------------------------------------------------------------------------------------
--------------------------------------------------------------------------------------
Server Id : i-051ab16cddcbdaadf
Started at : Mon Nov 27 2017 20:54:36 GMT-0500 (EST)
Configuration completed in 34.079 seconds
S3 download completed in 66.156 seconds
File Execution completed in 6816.835 seconds
S3 upload completed in 0.851 seconds
Terminated at : Mon Nov 27 2017 22:49:54 GMT-0500 (EST)
Total time : 6918.082 seconds
Baseline Completed
--------------------------------------------------------------------------------------
--------------------------------------------------------------------------------------
Server Id : i-08a4e16a93e8037b3
Started at : Mon Nov 27 2017 20:54:36 GMT-0500 (EST)
Configuration completed in 31.062 seconds
S3 download completed in 60.709 seconds
File Execution completed in 6732.054 seconds
S3 upload completed in 0.831 seconds
Terminated at : Mon Nov 27 2017 22:48:21 GMT-0500 (EST)
Total time : 6824.814 seconds
Baseline Completed
--------------------------------------------------------------------------------------
--------------------------------------------------------------------------------------
Server Id : i-0c608b70b7dae6f1c
Started at : Mon Nov 27 2017 20:54:36 GMT-0500 (EST)
Configuration completed in 32.373 seconds
S3 download completed in 63.694 seconds
File Execution completed in 6924.03 seconds
S3 upload completed in 0.819 seconds
Terminated at : Mon Nov 27 2017 22:51:37 GMT-0500 (EST)
Total time : 7021.08 seconds
Baseline Completed
--------------------------------------------------------------------------------------
--------------------------------------------------------------------------------------
Server Id : i-03c0b522403880d44
Started at : Mon Nov 27 2017 20:54:37 GMT-0500 (EST)
Configuration completed in 39.708 seconds
S3 download completed in 109.824 seconds
File Execution completed in 6973.539 seconds
S3 upload completed in 0.882 seconds
Terminated at : Mon Nov 27 2017 22:53:21 GMT-0500 (EST)
Total time : 7124.118 seconds
Baseline Completed
--------------------------------------------------------------------------------------
--------------------------------------------------------------------------------------
Server Id : i-060fedcfc59f835cb
Started at : Mon Nov 27 2017 20:54:37 GMT-0500 (EST)
Configuration completed in 31.097 seconds
S3 download completed in 62.569 seconds
File Execution completed in 7009.109 seconds
S3 upload completed in 0.885 seconds
Terminated at : Mon Nov 27 2017 22:53:00 GMT-0500 (EST)
Total time : 7103.826 seconds
Baseline Completed
--------------------------------------------------------------------------------------
--------------------------------------------------------------------------------------
Server Id : i-0f1bd0d962a46404d
Started at : Mon Nov 27 2017 20:54:41 GMT-0500 (EST)
Configuration completed in 36.794 seconds
S3 download completed in 73.309 seconds
File Execution completed in 6990.059 seconds
S3 upload completed in 0.768 seconds
Terminated at : Mon Nov 27 2017 22:53:02 GMT-0500 (EST)
Total time : 7101.095 seconds
Baseline Completed
--------------------------------------------------------------------------------------
--------------------------------------------------------------------------------------
Server Id : i-0348cc8779b468b04
Started at : Mon Nov 27 2017 20:54:42 GMT-0500 (EST)
Configuration completed in 29.448 seconds
S3 download completed in 95.892 seconds
File Execution completed in 7763.762 seconds
S3 upload completed in 0.842 seconds
Terminated at : Mon Nov 27 2017 23:06:12 GMT-0500 (EST)
Total time : 7890.114 seconds
Baseline Completed
--------------------------------------------------------------------------------------
--------------------------------------------------------------------------------------
Server Id : i-087e3f85358fce888
Started at : Mon Nov 27 2017 20:54:42 GMT-0500 (EST)
Configuration completed in 33.973 seconds
S3 download completed in 71.364 seconds
File Execution completed in 7695.077 seconds
S3 upload completed in 0.731 seconds
Terminated at : Mon Nov 27 2017 23:04:43 GMT-0500 (EST)
Total time : 7801.316 seconds
Baseline Completed
--------------------------------------------------------------------------------------
--------------------------------------------------------------------------------------
Server Id : i-04259f63de6c833de
Started at : Mon Nov 27 2017 20:54:42 GMT-0500 (EST)
Configuration completed in 33.108 seconds
S3 download completed in 64.739 seconds
File Execution completed in 6890.49 seconds
S3 upload completed in 0.724 seconds
Terminated at : Mon Nov 27 2017 22:51:11 GMT-0500 (EST)
Total time : 6989.226 seconds
Baseline Completed
--------------------------------------------------------------------------------------
--------------------------------------------------------------------------------------
Server Id : i-0addab40613c66703
Started at : Mon Nov 27 2017 20:54:42 GMT-0500 (EST)
Configuration completed in 68.474 seconds
S3 download completed in 57.135 seconds
File Execution completed in 6971.325 seconds
S3 upload completed in 0.85 seconds
Terminated at : Mon Nov 27 2017 22:53:00 GMT-0500 (EST)
Total time : 7097.946 seconds
Baseline Completed
--------------------------------------------------------------------------------------
--------------------------------------------------------------------------------------
Server Id : i-08e0fcb8350073257
Started at : Mon Nov 27 2017 20:54:46 GMT-0500 (EST)
Configuration completed in 32.486 seconds
S3 download completed in 67.903 seconds
File Execution completed in 6970.82 seconds
S3 upload completed in 1.101 seconds
Terminated at : Mon Nov 27 2017 22:52:38 GMT-0500 (EST)
Total time : 7072.476 seconds
Baseline Completed
--------------------------------------------------------------------------------------
--------------------------------------------------------------------------------------
Server Id : i-035889532212ddbdf
Started at : Mon Nov 27 2017 20:54:46 GMT-0500 (EST)
Configuration completed in 32.887 seconds
S3 download completed in 67.34 seconds
File Execution completed in 7002.701 seconds
S3 upload completed in 0.75 seconds
Terminated at : Mon Nov 27 2017 22:53:10 GMT-0500 (EST)
Total time : 7103.844 seconds
Baseline Completed
--------------------------------------------------------------------------------------
--------------------------------------------------------------------------------------
Server Id : i-0b2e4086d17314355
Started at : Mon Nov 27 2017 20:54:46 GMT-0500 (EST)
Configuration completed in 35.859 seconds
S3 download completed in 70.774 seconds
File Execution completed in 7596.891 seconds
S3 upload completed in 0.812 seconds
Terminated at : Mon Nov 27 2017 23:03:11 GMT-0500 (EST)
Total time : 7704.503 seconds
Baseline Completed
--------------------------------------------------------------------------------------
--------------------------------------------------------------------------------------
Server Id : i-0406fe0a206f9c985
Started at : Mon Nov 27 2017 20:54:46 GMT-0500 (EST)
Configuration completed in 33.141 seconds
S3 download completed in 71.438 seconds
File Execution completed in 7087.655 seconds
S3 upload completed in 0.884 seconds
Terminated at : Mon Nov 27 2017 22:54:40 GMT-0500 (EST)
Total time : 7193.284 seconds
Baseline Completed
--------------------------------------------------------------------------------------
--------------------------------------------------------------------------------------
Server Id : i-0cc6d8fea451245ee
Started at : Mon Nov 27 2017 20:54:47 GMT-0500 (EST)
Configuration completed in 34.621 seconds
S3 download completed in 100.855 seconds
File Execution completed in 7693.516 seconds
S3 upload completed in 0.765 seconds
Terminated at : Mon Nov 27 2017 23:05:17 GMT-0500 (EST)
Total time : 7829.925 seconds
Baseline Completed
--------------------------------------------------------------------------------------
--------------------------------------------------------------------------------------
Server Id : i-0ae4127e1b9c44a86
Started at : Mon Nov 27 2017 20:54:51 GMT-0500 (EST)
Configuration completed in 34.328 seconds
S3 download completed in 62.884 seconds
File Execution completed in 7188.337 seconds
S3 upload completed in 0.933 seconds
Terminated at : Mon Nov 27 2017 22:56:18 GMT-0500 (EST)
Total time : 7286.651 seconds
Baseline Completed
--------------------------------------------------------------------------------------
--------------------------------------------------------------------------------------
Server Id : i-0d3a8f3605c0ce6ce
Started at : Mon Nov 27 2017 20:54:51 GMT-0500 (EST)
Configuration completed in 36.038 seconds
S3 download completed in 41.536 seconds
File Execution completed in 5014.402 seconds
S3 upload completed in 0.795 seconds
Terminated at : Mon Nov 27 2017 22:19:44 GMT-0500 (EST)
Total time : 5092.937 seconds
Baseline Completed
--------------------------------------------------------------------------------------
--------------------------------------------------------------------------------------
Server Id : i-06700bd4df1c7e55e
Started at : Mon Nov 27 2017 20:54:51 GMT-0500 (EST)
Configuration completed in 36.75 seconds
S3 download completed in 66.04 seconds
File Execution completed in 6946.068 seconds
S3 upload completed in 0.957 seconds
Terminated at : Mon Nov 27 2017 22:52:21 GMT-0500 (EST)
Total time : 7049.977 seconds
Baseline Completed
--------------------------------------------------------------------------------------
--------------------------------------------------------------------------------------
Server Id : i-03c517d43009af2b9
Started at : Mon Nov 27 2017 20:54:51 GMT-0500 (EST)
Configuration completed in 33.942 seconds
S3 download completed in 73.156 seconds
File Execution completed in 7094.738 seconds
S3 upload completed in 0.906 seconds
Terminated at : Mon Nov 27 2017 22:54:54 GMT-0500 (EST)
Total time : 7202.909 seconds
Baseline Completed
--------------------------------------------------------------------------------------
--------------------------------------------------------------------------------------
Server Id : i-0339f38289f1d1027
Started at : Mon Nov 27 2017 20:54:51 GMT-0500 (EST)
Configuration completed in 38.29 seconds
S3 download completed in 70.816 seconds
File Execution completed in 8305.853 seconds
S3 upload completed in 0.76 seconds
Terminated at : Mon Nov 27 2017 23:15:07 GMT-0500 (EST)
Total time : 8415.892 seconds
Baseline Completed
--------------------------------------------------------------------------------------
--------------------------------------------------------------------------------------
Server Id : i-0ca4c178b353b7f82
Started at : Mon Nov 27 2017 20:54:55 GMT-0500 (EST)
Configuration completed in 33.456 seconds
S3 download completed in 65.805 seconds
File Execution completed in 7002.576 seconds
S3 upload completed in 0.736 seconds
Terminated at : Mon Nov 27 2017 22:53:18 GMT-0500 (EST)
Total time : 7102.74 seconds
Baseline Completed
--------------------------------------------------------------------------------------
--------------------------------------------------------------------------------------
Server Id : i-069f4e026025813fb
Started at : Mon Nov 27 2017 20:54:55 GMT-0500 (EST)
Configuration completed in 32.292 seconds
S3 download completed in 68.716 seconds
File Execution completed in 7587.567 seconds
S3 upload completed in 1.549 seconds
Terminated at : Mon Nov 27 2017 23:03:06 GMT-0500 (EST)
Total time : 7690.291 seconds
Baseline Completed
--------------------------------------------------------------------------------------
--------------------------------------------------------------------------------------
Server Id : i-0a29a3bcfd61fe51d
Started at : Mon Nov 27 2017 20:54:55 GMT-0500 (EST)
Configuration completed in 33.276 seconds
S3 download completed in 69.781 seconds
File Execution completed in 7295.129 seconds
S3 upload completed in 0.974 seconds
Terminated at : Mon Nov 27 2017 22:58:15 GMT-0500 (EST)
Total time : 7399.331 seconds
Baseline Completed
--------------------------------------------------------------------------------------
--------------------------------------------------------------------------------------
Server Id : i-0bdee72c7faacb51a
Started at : Mon Nov 27 2017 20:54:55 GMT-0500 (EST)
Configuration completed in 54.428 seconds
S3 download completed in 60.292 seconds
File Execution completed in 6377.468 seconds
S3 upload completed in 0.882 seconds
Terminated at : Mon Nov 27 2017 22:43:09 GMT-0500 (EST)
Total time : 6493.229 seconds
Baseline Completed
--------------------------------------------------------------------------------------
--------------------------------------------------------------------------------------
Server Id : i-01c1b674c4248b025
Started at : Mon Nov 27 2017 20:54:55 GMT-0500 (EST)
Configuration completed in 38.199 seconds
S3 download completed in 60.741 seconds
File Execution completed in 6261.029 seconds
S3 upload completed in 0.752 seconds
Terminated at : Mon Nov 27 2017 22:40:56 GMT-0500 (EST)
Total time : 6360.89 seconds
Baseline Completed
--------------------------------------------------------------------------------------
--------------------------------------------------------------------------------------
Server Id : i-02d520248a6e36f4b
Started at : Mon Nov 27 2017 20:54:59 GMT-0500 (EST)
Configuration completed in 33.831 seconds
S3 download completed in 132.891 seconds
File Execution completed in 6929.259 seconds
S3 upload completed in 0.947 seconds
Terminated at : Mon Nov 27 2017 22:53:17 GMT-0500 (EST)
Total time : 7097.093 seconds
Baseline Completed
--------------------------------------------------------------------------------------
--------------------------------------------------------------------------------------
Server Id : i-0b9a693f54796953f
Started at : Mon Nov 27 2017 20:54:59 GMT-0500 (EST)
Configuration completed in 41.805 seconds
S3 download completed in 102.512 seconds
File Execution completed in 7072.081 seconds
S3 upload completed in 0.833 seconds
Terminated at : Mon Nov 27 2017 22:55:17 GMT-0500 (EST)
Total time : 7217.399 seconds
Baseline Completed
--------------------------------------------------------------------------------------
--------------------------------------------------------------------------------------
Server Id : i-099052bb3c0d8153b
Started at : Mon Nov 27 2017 20:55:00 GMT-0500 (EST)
Configuration completed in 36.569 seconds
S3 download completed in 68.77 seconds
File Execution completed in 6991.05 seconds
S3 upload completed in 1.434 seconds
Terminated at : Mon Nov 27 2017 22:53:18 GMT-0500 (EST)
Total time : 7097.994 seconds
Baseline Completed
--------------------------------------------------------------------------------------
--------------------------------------------------------------------------------------
Server Id : i-020065a604a2f3028
Started at : Mon Nov 27 2017 20:55:00 GMT-0500 (EST)
Configuration completed in 54.184 seconds
S3 download completed in 54.433 seconds
File Execution completed in 7027.106 seconds
S3 upload completed in 0.89 seconds
Terminated at : Mon Nov 27 2017 22:53:57 GMT-0500 (EST)
Total time : 7136.78 seconds
Baseline Completed
--------------------------------------------------------------------------------------
--------------------------------------------------------------------------------------
Server Id : i-0b70691ecdbac456c
Started at : Mon Nov 27 2017 20:55:00 GMT-0500 (EST)
Configuration completed in 31.897 seconds
S3 download completed in 71.139 seconds
File Execution completed in 7039.642 seconds
S3 upload completed in 0.86 seconds
Terminated at : Mon Nov 27 2017 22:54:04 GMT-0500 (EST)
Total time : 7143.707 seconds
Baseline Completed
--------------------------------------------------------------------------------------
--------------------------------------------------------------------------------------
Server Id : i-0d482713299b847c2
Started at : Mon Nov 27 2017 20:55:04 GMT-0500 (EST)
Configuration completed in 44.873 seconds
S3 download completed in 102.322 seconds
File Execution completed in 6971.96 seconds
S3 upload completed in 0.837 seconds
Terminated at : Mon Nov 27 2017 22:53:44 GMT-0500 (EST)
Total time : 7120.161 seconds
Baseline Completed
--------------------------------------------------------------------------------------
--------------------------------------------------------------------------------------
Server Id : i-0a27cb8ccd5a8408d
Started at : Mon Nov 27 2017 20:55:04 GMT-0500 (EST)
Configuration completed in 37.36 seconds
S3 download completed in 66.858 seconds
File Execution completed in 7267.867 seconds
S3 upload completed in 0.89 seconds
Terminated at : Mon Nov 27 2017 22:57:57 GMT-0500 (EST)
Total time : 7373.145 seconds
Baseline Completed
--------------------------------------------------------------------------------------
--------------------------------------------------------------------------------------
Server Id : i-0ecd8ae4c0657ff4b
Started at : Mon Nov 27 2017 20:55:04 GMT-0500 (EST)
Configuration completed in 32.875 seconds
S3 download completed in 71.144 seconds
File Execution completed in 6800.085 seconds
S3 upload completed in 0.83 seconds
Terminated at : Mon Nov 27 2017 22:50:09 GMT-0500 (EST)
Total time : 6905.098 seconds
Baseline Completed
--------------------------------------------------------------------------------------
--------------------------------------------------------------------------------------
Server Id : i-08d26629a47ebc9bc
Started at : Mon Nov 27 2017 20:55:04 GMT-0500 (EST)
Configuration completed in 33.866 seconds
S3 download completed in 100.364 seconds
File Execution completed in 7071.763 seconds
S3 upload completed in 0.788 seconds
Terminated at : Mon Nov 27 2017 22:55:11 GMT-0500 (EST)
Total time : 7206.948 seconds
Baseline Completed
--------------------------------------------------------------------------------------
--------------------------------------------------------------------------------------
Server Id : i-01d35824152be2c51
Started at : Mon Nov 27 2017 20:55:04 GMT-0500 (EST)
Configuration completed in 39.934 seconds
S3 download completed in 70.075 seconds
File Execution completed in 6692.521 seconds
S3 upload completed in 0.924 seconds
Terminated at : Mon Nov 27 2017 22:48:28 GMT-0500 (EST)
Total time : 6803.611 seconds
Baseline Completed
--------------------------------------------------------------------------------------
--------------------------------------------------------------------------------------
Server Id : i-04ef7c6239c7f80f0
Started at : Mon Nov 27 2017 20:55:08 GMT-0500 (EST)
Configuration completed in 31.523 seconds
S3 download completed in 64.527 seconds
File Execution completed in 7631.539 seconds
S3 upload completed in 0.769 seconds
Terminated at : Mon Nov 27 2017 23:03:57 GMT-0500 (EST)
Total time : 7728.525 seconds
Baseline Completed
--------------------------------------------------------------------------------------
--------------------------------------------------------------------------------------
Server Id : i-0ac52b49ec22e1e6e
Started at : Mon Nov 27 2017 20:55:08 GMT-0500 (EST)
Configuration completed in 37.024 seconds
S3 download completed in 65.646 seconds
File Execution completed in 6985.299 seconds
S3 upload completed in 1.267 seconds
Terminated at : Mon Nov 27 2017 22:53:18 GMT-0500 (EST)
Total time : 7089.401 seconds
Baseline Completed
--------------------------------------------------------------------------------------
--------------------------------------------------------------------------------------
Server Id : i-02aa1bdd7da409824
Started at : Mon Nov 27 2017 20:55:08 GMT-0500 (EST)
Configuration completed in 31.547 seconds
S3 download completed in 99.899 seconds
File Execution completed in 7092.079 seconds
S3 upload completed in 0.777 seconds
Terminated at : Mon Nov 27 2017 22:55:33 GMT-0500 (EST)
Total time : 7224.472 seconds
Baseline Completed
--------------------------------------------------------------------------------------
--------------------------------------------------------------------------------------
Server Id : i-055942f3778cd4a2f
Started at : Mon Nov 27 2017 20:55:08 GMT-0500 (EST)
Configuration completed in 36.313 seconds
S3 download completed in 68.018 seconds
File Execution completed in 7752.639 seconds
S3 upload completed in 0.784 seconds
Terminated at : Mon Nov 27 2017 23:06:06 GMT-0500 (EST)
Total time : 7857.922 seconds
Baseline Completed
--------------------------------------------------------------------------------------
--------------------------------------------------------------------------------------
Server Id : i-0216407c4821e7dbb
Started at : Mon Nov 27 2017 20:55:08 GMT-0500 (EST)
Configuration completed in 40.621 seconds
S3 download completed in 110.256 seconds
File Execution completed in 7132.15 seconds
S3 upload completed in 0.806 seconds
Terminated at : Mon Nov 27 2017 22:56:32 GMT-0500 (EST)
Total time : 7284.001 seconds
Baseline Completed
--------------------------------------------------------------------------------------
--------------------------------------------------------------------------------------
Server Id : i-015d2cd39f287ebd4
Started at : Mon Nov 27 2017 20:55:12 GMT-0500 (EST)
Configuration completed in 27.942 seconds
S3 download completed in 122.639 seconds
File Execution completed in 6894.767 seconds
S3 upload completed in 0.969 seconds
Terminated at : Mon Nov 27 2017 22:52:39 GMT-0500 (EST)
Total time : 7046.483 seconds
Baseline Completed
--------------------------------------------------------------------------------------
--------------------------------------------------------------------------------------
Server Id : i-0fd5e675444459dc1
Started at : Mon Nov 27 2017 20:55:13 GMT-0500 (EST)
Configuration completed in 31.888 seconds
S3 download completed in 108.905 seconds
File Execution completed in 7004.059 seconds
S3 upload completed in 0.88 seconds
Terminated at : Mon Nov 27 2017 22:54:19 GMT-0500 (EST)
Total time : 7145.897 seconds
Baseline Completed
--------------------------------------------------------------------------------------
--------------------------------------------------------------------------------------
Server Id : i-00d200b9e0080d0d4
Started at : Mon Nov 27 2017 20:55:13 GMT-0500 (EST)
Configuration completed in 34.944 seconds
S3 download completed in 71.12 seconds
File Execution completed in 7005.903 seconds
S3 upload completed in 0.935 seconds
Terminated at : Mon Nov 27 2017 22:53:46 GMT-0500 (EST)
Total time : 7113.068 seconds
Baseline Completed
--------------------------------------------------------------------------------------
--------------------------------------------------------------------------------------
Server Id : i-08ea6bacd79d8d485
Started at : Mon Nov 27 2017 20:55:13 GMT-0500 (EST)
Configuration completed in 36.323 seconds
S3 download completed in 69.49 seconds
File Execution completed in 6952.549 seconds
S3 upload completed in 1.177 seconds
Terminated at : Mon Nov 27 2017 22:52:53 GMT-0500 (EST)
Total time : 7059.702 seconds
Baseline Completed
--------------------------------------------------------------------------------------
--------------------------------------------------------------------------------------
Server Id : i-091d3f8737250cc5b
Started at : Mon Nov 27 2017 20:55:13 GMT-0500 (EST)
Configuration completed in 33.284 seconds
S3 download completed in 66.334 seconds
File Execution completed in 7573.345 seconds
S3 upload completed in 0.853 seconds
Terminated at : Mon Nov 27 2017 23:03:07 GMT-0500 (EST)
Total time : 7673.984 seconds
Baseline Completed
--------------------------------------------------------------------------------------
--------------------------------------------------------------------------------------
Server Id : i-0a2f8066bf8088fd7
Started at : Mon Nov 27 2017 20:55:19 GMT-0500 (EST)
Configuration completed in 32.812 seconds
S3 download completed in 113.014 seconds
File Execution completed in 7046.871 seconds
S3 upload completed in 0.843 seconds
Terminated at : Mon Nov 27 2017 22:55:13 GMT-0500 (EST)
Total time : 7193.705 seconds
Baseline Completed
--------------------------------------------------------------------------------------
--------------------------------------------------------------------------------------
Server Id : i-0d4e9791fcab0fde8
Started at : Mon Nov 27 2017 20:55:19 GMT-0500 (EST)
Configuration completed in 30.68 seconds
S3 download completed in 62.507 seconds
File Execution completed in 6894.721 seconds
S3 upload completed in 1.072 seconds
Terminated at : Mon Nov 27 2017 22:51:48 GMT-0500 (EST)
Total time : 6989.147 seconds
Baseline Completed
--------------------------------------------------------------------------------------
--------------------------------------------------------------------------------------
Server Id : i-0425c496bfd2a5f8b
Started at : Mon Nov 27 2017 20:55:19 GMT-0500 (EST)
Configuration completed in 35.931 seconds
S3 download completed in 66.229 seconds
File Execution completed in 6948.453 seconds
S3 upload completed in 0.713 seconds
Terminated at : Mon Nov 27 2017 22:52:51 GMT-0500 (EST)
Total time : 7051.49 seconds
Baseline Completed
--------------------------------------------------------------------------------------
--------------------------------------------------------------------------------------
Server Id : i-0d1bff62238c14858
Started at : Mon Nov 27 2017 20:55:20 GMT-0500 (EST)
Configuration completed in 38.547 seconds
S3 download completed in 64.364 seconds
File Execution completed in 6874.304 seconds
S3 upload completed in 0.789 seconds
Terminated at : Mon Nov 27 2017 22:51:38 GMT-0500 (EST)
Total time : 6978.17 seconds
Baseline Completed
--------------------------------------------------------------------------------------
--------------------------------------------------------------------------------------
Server Id : i-03f2e4aa0bd245f38
Started at : Mon Nov 27 2017 20:55:19 GMT-0500 (EST)
Configuration completed in 30.801 seconds
S3 download completed in 96.837 seconds
File Execution completed in 6936.668 seconds
S3 upload completed in 0.806 seconds
Terminated at : Mon Nov 27 2017 22:53:05 GMT-0500 (EST)
Total time : 7065.277 seconds
Baseline Completed
--------------------------------------------------------------------------------------
--------------------------------------------------------------------------------------
Server Id : i-00c420b8f0111b734
Started at : Mon Nov 27 2017 20:55:24 GMT-0500 (EST)
Configuration completed in 35.028 seconds
S3 download completed in 63.882 seconds
File Execution completed in 6934.681 seconds
S3 upload completed in 0.768 seconds
Terminated at : Mon Nov 27 2017 22:52:39 GMT-0500 (EST)
Total time : 7034.521 seconds
Baseline Completed
--------------------------------------------------------------------------------------
--------------------------------------------------------------------------------------
Server Id : i-00e33a9766e5b6ce6
Started at : Mon Nov 27 2017 20:55:25 GMT-0500 (EST)
Configuration completed in 35.705 seconds
S3 download completed in 104.432 seconds
File Execution completed in 6881.026 seconds
S3 upload completed in 0.996 seconds
Terminated at : Mon Nov 27 2017 22:52:27 GMT-0500 (EST)
Total time : 7022.324 seconds
Baseline Completed
--------------------------------------------------------------------------------------
--------------------------------------------------------------------------------------
Server Id : i-03461fec8876deec1
Started at : Mon Nov 27 2017 20:55:25 GMT-0500 (EST)
Configuration completed in 36.624 seconds
S3 download completed in 62.865 seconds
File Execution completed in 7136.251 seconds
S3 upload completed in 0.934 seconds
Terminated at : Mon Nov 27 2017 22:56:02 GMT-0500 (EST)
Total time : 7236.841 seconds
Baseline Completed
--------------------------------------------------------------------------------------
--------------------------------------------------------------------------------------
Server Id : i-05d68ee46471be34f
Started at : Mon Nov 27 2017 20:55:25 GMT-0500 (EST)
Configuration completed in 33.271 seconds
S3 download completed in 52.586 seconds
File Execution completed in 5545.993 seconds
S3 upload completed in 0.87 seconds
Terminated at : Mon Nov 27 2017 22:29:18 GMT-0500 (EST)
Total time : 5632.886 seconds
Baseline Completed
--------------------------------------------------------------------------------------
--------------------------------------------------------------------------------------
Server Id : i-0a5c26b3bc56d08fc
Started at : Mon Nov 27 2017 20:55:25 GMT-0500 (EST)
Configuration completed in 30.763 seconds
S3 download completed in 64.788 seconds
File Execution completed in 6825.334 seconds
S3 upload completed in 1.173 seconds
Terminated at : Mon Nov 27 2017 22:50:47 GMT-0500 (EST)
Total time : 6922.22 seconds
Baseline Completed
--------------------------------------------------------------------------------------
--------------------------------------------------------------------------------------
Server Id : i-0ada42140e9102495
Started at : Mon Nov 27 2017 20:55:29 GMT-0500 (EST)
Configuration completed in 30.361 seconds
S3 download completed in 62.387 seconds
File Execution completed in 6872.222 seconds
S3 upload completed in 0.797 seconds
Terminated at : Mon Nov 27 2017 22:51:35 GMT-0500 (EST)
Total time : 6965.933 seconds
Baseline Completed
--------------------------------------------------------------------------------------
--------------------------------------------------------------------------------------
Server Id : i-059b5c503999f7052
Started at : Mon Nov 27 2017 20:55:30 GMT-0500 (EST)
Configuration completed in 31.074 seconds
S3 download completed in 61.482 seconds
File Execution completed in 7115.559 seconds
S3 upload completed in 0.909 seconds
Terminated at : Mon Nov 27 2017 22:55:39 GMT-0500 (EST)
Total time : 7209.192 seconds
Baseline Completed
--------------------------------------------------------------------------------------
--------------------------------------------------------------------------------------
Server Id : i-07cf4eeb7b8145e77
Started at : Mon Nov 27 2017 20:55:30 GMT-0500 (EST)
Configuration completed in 32.593 seconds
S3 download completed in 62.164 seconds
File Execution completed in 6914.051 seconds
S3 upload completed in 0.894 seconds
Terminated at : Mon Nov 27 2017 22:52:19 GMT-0500 (EST)
Total time : 7009.865 seconds
Baseline Completed
--------------------------------------------------------------------------------------
--------------------------------------------------------------------------------------
Server Id : i-0f8c7a56d825a9616
Started at : Mon Nov 27 2017 20:55:30 GMT-0500 (EST)
Configuration completed in 33.916 seconds
S3 download completed in 58.25 seconds
File Execution completed in 6930.974 seconds
S3 upload completed in 0.908 seconds
Terminated at : Mon Nov 27 2017 22:52:34 GMT-0500 (EST)
Total time : 7024.213 seconds
Baseline Completed
--------------------------------------------------------------------------------------
--------------------------------------------------------------------------------------
Server Id : i-04a4ca4bcf73890d3
Started at : Mon Nov 27 2017 20:55:30 GMT-0500 (EST)
Configuration completed in 41.09 seconds
S3 download completed in 63.319 seconds
File Execution completed in 6579.579 seconds
S3 upload completed in 0.868 seconds
Terminated at : Mon Nov 27 2017 22:46:55 GMT-0500 (EST)
Total time : 6685.013 seconds
Baseline Completed
--------------------------------------------------------------------------------------
--------------------------------------------------------------------------------------
Server Id : i-0056abfa97cfebcfc
Started at : Mon Nov 27 2017 20:55:35 GMT-0500 (EST)
Configuration completed in 45.095 seconds
S3 download completed in 65.751 seconds
File Execution completed in 6926.836 seconds
S3 upload completed in 0.828 seconds
Terminated at : Mon Nov 27 2017 22:52:54 GMT-0500 (EST)
Total time : 7038.674 seconds
Baseline Completed
--------------------------------------------------------------------------------------
--------------------------------------------------------------------------------------
Server Id : i-02bf4d52821d88549
Started at : Mon Nov 27 2017 20:55:35 GMT-0500 (EST)
Configuration completed in 30.805 seconds
S3 download completed in 64.112 seconds
File Execution completed in 6924.51 seconds
S3 upload completed in 0.98 seconds
Terminated at : Mon Nov 27 2017 22:52:36 GMT-0500 (EST)
Total time : 7020.572 seconds
Baseline Completed
--------------------------------------------------------------------------------------
--------------------------------------------------------------------------------------
Server Id : i-0a493ab24aa90d59a
Started at : Mon Nov 27 2017 20:55:36 GMT-0500 (EST)
Configuration completed in 75.516 seconds
S3 download completed in 69.752 seconds
File Execution completed in 7005.54 seconds
S3 upload completed in 0.758 seconds
Terminated at : Mon Nov 27 2017 22:54:48 GMT-0500 (EST)
Total time : 7151.732 seconds
Baseline Completed
--------------------------------------------------------------------------------------
--------------------------------------------------------------------------------------
Server Id : i-053a4ad008dcf19ff
Started at : Mon Nov 27 2017 20:55:36 GMT-0500 (EST)
Configuration completed in 42.06 seconds
S3 download completed in 103.862 seconds
File Execution completed in 6695.668 seconds
S3 upload completed in 0.8 seconds
Terminated at : Mon Nov 27 2017 22:49:39 GMT-0500 (EST)
Total time : 6842.554 seconds
Baseline Completed
--------------------------------------------------------------------------------------
--------------------------------------------------------------------------------------
Server Id : i-0dfa9842b24087ce4
Started at : Mon Nov 27 2017 20:55:36 GMT-0500 (EST)
Configuration completed in 36.11 seconds
S3 download completed in 62.587 seconds
File Execution completed in 6850.847 seconds
S3 upload completed in 0.898 seconds
Terminated at : Mon Nov 27 2017 22:51:27 GMT-0500 (EST)
Total time : 6950.605 seconds
Baseline Completed
--------------------------------------------------------------------------------------
--------------------------------------------------------------------------------------
Server Id : i-0591da2839a6e59c3
Started at : Mon Nov 27 2017 20:55:42 GMT-0500 (EST)
Configuration completed in 34.926 seconds
S3 download completed in 68.442 seconds
File Execution completed in 6745.613 seconds
S3 upload completed in 0.922 seconds
Terminated at : Mon Nov 27 2017 22:49:52 GMT-0500 (EST)
Total time : 6850.064 seconds
Baseline Completed
--------------------------------------------------------------------------------------
--------------------------------------------------------------------------------------
Server Id : i-0edfe4ae1fc71fe7a
Started at : Mon Nov 27 2017 20:55:42 GMT-0500 (EST)
Configuration completed in 36.613 seconds
S3 download completed in 105.913 seconds
File Execution completed in 6864.829 seconds
S3 upload completed in 0.799 seconds
Terminated at : Mon Nov 27 2017 22:52:30 GMT-0500 (EST)
Total time : 7008.318 seconds
Baseline Completed
--------------------------------------------------------------------------------------
--------------------------------------------------------------------------------------
Server Id : i-04eb570ce849af633
Started at : Mon Nov 27 2017 20:55:42 GMT-0500 (EST)
Configuration completed in 32.608 seconds
S3 download completed in 64.21 seconds
File Execution completed in 7116.35 seconds
S3 upload completed in 0.787 seconds
Terminated at : Mon Nov 27 2017 22:55:56 GMT-0500 (EST)
Total time : 7214.123 seconds
Baseline Completed
--------------------------------------------------------------------------------------
--------------------------------------------------------------------------------------
Server Id : i-024b967a6010af43f
Started at : Mon Nov 27 2017 20:55:42 GMT-0500 (EST)
Configuration completed in 30.657 seconds
S3 download completed in 74.754 seconds
File Execution completed in 6922.089 seconds
S3 upload completed in 0.832 seconds
Terminated at : Mon Nov 27 2017 22:52:50 GMT-0500 (EST)
Total time : 7028.497 seconds
Baseline Completed
--------------------------------------------------------------------------------------
--------------------------------------------------------------------------------------
Server Id : i-092ea32ab4c4091ab
Started at : Mon Nov 27 2017 20:55:42 GMT-0500 (EST)
Configuration completed in 35.235 seconds
S3 download completed in 65.218 seconds
File Execution completed in 6478.578 seconds
S3 upload completed in 0.708 seconds
Terminated at : Mon Nov 27 2017 22:45:22 GMT-0500 (EST)
Total time : 6579.903 seconds
Baseline Completed
--------------------------------------------------------------------------------------
--------------------------------------------------------------------------------------
Server Id : i-0540dd752b6c026b5
Started at : Mon Nov 27 2017 20:55:49 GMT-0500 (EST)
Configuration completed in 47.937 seconds
S3 download completed in 69.59 seconds
File Execution completed in 7188.898 seconds
S3 upload completed in 0.97 seconds
Terminated at : Mon Nov 27 2017 22:57:37 GMT-0500 (EST)
Total time : 7307.562 seconds
Baseline Completed
--------------------------------------------------------------------------------------
--------------------------------------------------------------------------------------
Server Id : i-084b64d6ebac23fc2
Started at : Mon Nov 27 2017 20:55:49 GMT-0500 (EST)
Configuration completed in 40.088 seconds
S3 download completed in 67.469 seconds
File Execution completed in 7097.415 seconds
S3 upload completed in 1.051 seconds
Terminated at : Mon Nov 27 2017 22:55:55 GMT-0500 (EST)
Total time : 7206.188 seconds
Baseline Completed
--------------------------------------------------------------------------------------
--------------------------------------------------------------------------------------
Server Id : i-0221fb7c8f74a7a2b
Started at : Mon Nov 27 2017 20:55:49 GMT-0500 (EST)
Configuration completed in 33.715 seconds
S3 download completed in 121.609 seconds
File Execution completed in 7270.549 seconds
S3 upload completed in 0.879 seconds
Terminated at : Mon Nov 27 2017 22:59:36 GMT-0500 (EST)
Total time : 7426.922 seconds
Baseline Completed
--------------------------------------------------------------------------------------
--------------------------------------------------------------------------------------
Server Id : i-04c1efbf6ec7526ce
Started at : Mon Nov 27 2017 20:55:50 GMT-0500 (EST)
Configuration completed in 35.729 seconds
S3 download completed in 67.582 seconds
File Execution completed in 7151.502 seconds
S3 upload completed in 0.762 seconds
Terminated at : Mon Nov 27 2017 22:56:45 GMT-0500 (EST)
Total time : 7255.743 seconds
Baseline Completed
--------------------------------------------------------------------------------------
--------------------------------------------------------------------------------------
Server Id : i-0e860cb5c00f91aa5
Started at : Mon Nov 27 2017 20:55:50 GMT-0500 (EST)
Configuration completed in 34.062 seconds
S3 download completed in 70.553 seconds
File Execution completed in 7873.925 seconds
S3 upload completed in 0.902 seconds
Terminated at : Mon Nov 27 2017 23:08:49 GMT-0500 (EST)
Total time : 7979.608 seconds
Baseline Completed
--------------------------------------------------------------------------------------
--------------------------------------------------------------------------------------
Server Id : i-00ff4f119002c3e45
Started at : Mon Nov 27 2017 20:55:54 GMT-0500 (EST)
Configuration completed in 40.189 seconds
S3 download completed in 70.297 seconds
File Execution completed in 7399.496 seconds
S3 upload completed in 1.182 seconds
Terminated at : Mon Nov 27 2017 23:01:05 GMT-0500 (EST)
Total time : 7511.334 seconds
Baseline Completed
--------------------------------------------------------------------------------------
--------------------------------------------------------------------------------------
Server Id : i-02d0608a62d7256fb
Started at : Mon Nov 27 2017 20:55:54 GMT-0500 (EST)
Configuration completed in 34.174 seconds
S3 download completed in 103.735 seconds
File Execution completed in 7112.453 seconds
S3 upload completed in 0.726 seconds
Terminated at : Mon Nov 27 2017 22:56:45 GMT-0500 (EST)
Total time : 7251.251 seconds
Baseline Completed
--------------------------------------------------------------------------------------
--------------------------------------------------------------------------------------
Server Id : i-092954ca740627e90
Started at : Mon Nov 27 2017 20:55:54 GMT-0500 (EST)
Configuration completed in 34.297 seconds
S3 download completed in 104.119 seconds
File Execution completed in 7018.679 seconds
S3 upload completed in 1.316 seconds
Terminated at : Mon Nov 27 2017 22:55:13 GMT-0500 (EST)
Total time : 7158.577 seconds
Baseline Completed
--------------------------------------------------------------------------------------
--------------------------------------------------------------------------------------
Server Id : i-0f3c5db0a317de981
Started at : Mon Nov 27 2017 20:55:54 GMT-0500 (EST)
Configuration completed in 38.388 seconds
S3 download completed in 72.063 seconds
File Execution completed in 7035.041 seconds
S3 upload completed in 0.848 seconds
Terminated at : Mon Nov 27 2017 22:55:01 GMT-0500 (EST)
Total time : 7146.508 seconds
Baseline Completed
--------------------------------------------------------------------------------------
--------------------------------------------------------------------------------------
Server Id : i-05e605f64b7272108
Started at : Mon Nov 27 2017 20:55:54 GMT-0500 (EST)
Configuration completed in 29.46 seconds
S3 download completed in 68.463 seconds
File Execution completed in 8002.038 seconds
S3 upload completed in 0.956 seconds
Terminated at : Mon Nov 27 2017 23:10:56 GMT-0500 (EST)
Total time : 8101.085 seconds
Baseline Completed
--------------------------------------------------------------------------------------
--------------------------------------------------------------------------------------
Server Id : i-0fe767dee8def9d00
Started at : Mon Nov 27 2017 20:55:58 GMT-0500 (EST)
Configuration completed in 32.448 seconds
S3 download completed in 64.421 seconds
File Execution completed in 6856.654 seconds
S3 upload completed in 0.746 seconds
Terminated at : Mon Nov 27 2017 22:51:52 GMT-0500 (EST)
Total time : 6954.433 seconds
Baseline Completed
--------------------------------------------------------------------------------------
--------------------------------------------------------------------------------------
Server Id : i-0dc4bd458eb2c43a4
Started at : Mon Nov 27 2017 20:55:58 GMT-0500 (EST)
Configuration completed in 32.145 seconds
S3 download completed in 40.762 seconds
File Execution completed in 5184.479 seconds
S3 upload completed in 1.205 seconds
Terminated at : Mon Nov 27 2017 22:23:37 GMT-0500 (EST)
Total time : 5258.755 seconds
Baseline Completed
--------------------------------------------------------------------------------------
--------------------------------------------------------------------------------------
Server Id : i-00fbe2d0c53858295
Started at : Mon Nov 27 2017 20:55:58 GMT-0500 (EST)
Configuration completed in 29.128 seconds
S3 download completed in 69.309 seconds
File Execution completed in 7014.178 seconds
S3 upload completed in 0.787 seconds
Terminated at : Mon Nov 27 2017 22:54:31 GMT-0500 (EST)
Total time : 7113.565 seconds
Baseline Completed
--------------------------------------------------------------------------------------
--------------------------------------------------------------------------------------
Server Id : i-0e093d640304728fc
Started at : Mon Nov 27 2017 20:55:58 GMT-0500 (EST)
Configuration completed in 35.3 seconds
S3 download completed in 65.154 seconds
File Execution completed in 7196.799 seconds
S3 upload completed in 1.127 seconds
Terminated at : Mon Nov 27 2017 22:57:36 GMT-0500 (EST)
Total time : 7298.547 seconds
Baseline Completed
--------------------------------------------------------------------------------------