Welcome to NHANES AWS project!!
Running Baseline metrics
Messages pushed to the queue successfully
Please wait till we fetch the running time and pricing estimates for your algorithm.
Do not refresh or press the back button of your browser.
Initializing 100 worker machine(s) for processing...
T = Total Machines, C = Configuring, S3D = S3 Download, E = Executing, S3U = S3 Upload, F = Finished
--------------------------------------------------------------------------------------
Job ID : xITeDoeRZG     T : 100   C : 0   S3D : 0   E : 0   S3U : 0   F : 100
--------------------------------------------------------------------------------------
--------------------------------------------------------------------------------------
Server Id : i-04f9964c016bed8f5
Started at : Thu Oct 26 2017 03:56:11 GMT-0400 (Eastern Daylight Time)
Configuration completed in 49.287 seconds
S3 download completed in 18.271 seconds
File Execution completed in 1205.745 seconds
S3 upload completed in 1.507 seconds
Terminated at : Thu Oct 26 2017 04:17:26 GMT-0400 (Eastern Daylight Time)
Total time : 1275.033 seconds
Baseline Completed
--------------------------------------------------------------------------------------
--------------------------------------------------------------------------------------
Server Id : i-0d6337de5550a80fd
Started at : Thu Oct 26 2017 03:56:11 GMT-0400 (Eastern Daylight Time)
Configuration completed in 34.629 seconds
S3 download completed in 22.749 seconds
File Execution completed in 1192.058 seconds
S3 upload completed in 1.678 seconds
Terminated at : Thu Oct 26 2017 04:17:02 GMT-0400 (Eastern Daylight Time)
Total time : 1251.335 seconds
Baseline Completed
--------------------------------------------------------------------------------------
--------------------------------------------------------------------------------------
Server Id : i-08c8ee186e53a2df4
Started at : Thu Oct 26 2017 03:56:11 GMT-0400 (Eastern Daylight Time)
Configuration completed in 33.668 seconds
S3 download completed in 16.374 seconds
File Execution completed in 1220.84 seconds
S3 upload completed in 1.181 seconds
Terminated at : Thu Oct 26 2017 04:17:23 GMT-0400 (Eastern Daylight Time)
Total time : 1272.237 seconds
Baseline Completed
--------------------------------------------------------------------------------------
--------------------------------------------------------------------------------------
Server Id : i-00dd135b7ac8a8c54
Started at : Thu Oct 26 2017 03:56:11 GMT-0400 (Eastern Daylight Time)
Configuration completed in 33.482 seconds
S3 download completed in 23.855 seconds
File Execution completed in 1235.595 seconds
S3 upload completed in 1.349 seconds
Terminated at : Thu Oct 26 2017 04:17:46 GMT-0400 (Eastern Daylight Time)
Total time : 1294.499 seconds
Baseline Completed
--------------------------------------------------------------------------------------
--------------------------------------------------------------------------------------
Server Id : i-0ba8483b3dc54b074
Started at : Thu Oct 26 2017 03:56:11 GMT-0400 (Eastern Daylight Time)
Configuration completed in 33.853 seconds
S3 download completed in 17.488 seconds
File Execution completed in 1177.947 seconds
S3 upload completed in 1.595 seconds
Terminated at : Thu Oct 26 2017 04:16:42 GMT-0400 (Eastern Daylight Time)
Total time : 1231.09 seconds
Baseline Completed
--------------------------------------------------------------------------------------
--------------------------------------------------------------------------------------
Server Id : i-04a738934314062f2
Started at : Thu Oct 26 2017 03:56:15 GMT-0400 (Eastern Daylight Time)
Configuration completed in 29.24 seconds
S3 download completed in 17.062 seconds
File Execution completed in 1211.129 seconds
S3 upload completed in 2.298 seconds
Terminated at : Thu Oct 26 2017 04:17:15 GMT-0400 (Eastern Daylight Time)
Total time : 1259.948 seconds
Baseline Completed
--------------------------------------------------------------------------------------
--------------------------------------------------------------------------------------
Server Id : i-08c3b1275a6ad43f4
Started at : Thu Oct 26 2017 03:56:15 GMT-0400 (Eastern Daylight Time)
Configuration completed in 35.431 seconds
S3 download completed in 13.007 seconds
File Execution completed in 1198.955 seconds
S3 upload completed in 1.754 seconds
Terminated at : Thu Oct 26 2017 04:17:04 GMT-0400 (Eastern Daylight Time)
Total time : 1249.366 seconds
Baseline Completed
--------------------------------------------------------------------------------------
--------------------------------------------------------------------------------------
Server Id : i-0340245f7161366cd
Started at : Thu Oct 26 2017 03:56:15 GMT-0400 (Eastern Daylight Time)
Configuration completed in 26.782 seconds
S3 download completed in 22.098 seconds
File Execution completed in 1179.988 seconds
S3 upload completed in 1.857 seconds
Terminated at : Thu Oct 26 2017 04:16:46 GMT-0400 (Eastern Daylight Time)
Total time : 1230.939 seconds
Baseline Completed
--------------------------------------------------------------------------------------
--------------------------------------------------------------------------------------
Server Id : i-0f0d225701c1ac3c1
Started at : Thu Oct 26 2017 03:56:15 GMT-0400 (Eastern Daylight Time)
Configuration completed in 33.601 seconds
S3 download completed in 21.732 seconds
File Execution completed in 1200.97 seconds
S3 upload completed in 1.335 seconds
Terminated at : Thu Oct 26 2017 04:17:13 GMT-0400 (Eastern Daylight Time)
Total time : 1257.9 seconds
Baseline Completed
--------------------------------------------------------------------------------------
--------------------------------------------------------------------------------------
Server Id : i-0966d9a7c563d041f
Started at : Thu Oct 26 2017 03:56:15 GMT-0400 (Eastern Daylight Time)
Configuration completed in 33.835 seconds
S3 download completed in 23.485 seconds
File Execution completed in 1234.064 seconds
S3 upload completed in 1.502 seconds
Terminated at : Thu Oct 26 2017 04:17:48 GMT-0400 (Eastern Daylight Time)
Total time : 1293.168 seconds
Baseline Completed
--------------------------------------------------------------------------------------
--------------------------------------------------------------------------------------
Server Id : i-089efccd011d3f6f7
Started at : Thu Oct 26 2017 03:56:18 GMT-0400 (Eastern Daylight Time)
Configuration completed in 34.898 seconds
S3 download completed in 11.057 seconds
File Execution completed in 1181.162 seconds
S3 upload completed in 1.803 seconds
Terminated at : Thu Oct 26 2017 04:16:47 GMT-0400 (Eastern Daylight Time)
Total time : 1229.129 seconds
Baseline Completed
--------------------------------------------------------------------------------------
--------------------------------------------------------------------------------------
Server Id : i-044d2e5362f2a1371
Started at : Thu Oct 26 2017 03:56:18 GMT-0400 (Eastern Daylight Time)
Configuration completed in 57.027 seconds
S3 download completed in 29.19 seconds
File Execution completed in 1139.273 seconds
S3 upload completed in 1.361 seconds
Terminated at : Thu Oct 26 2017 04:16:45 GMT-0400 (Eastern Daylight Time)
Total time : 1227.075 seconds
Baseline Completed
--------------------------------------------------------------------------------------
--------------------------------------------------------------------------------------
Server Id : i-044d7f6d61164fae8
Started at : Thu Oct 26 2017 03:56:18 GMT-0400 (Eastern Daylight Time)
Configuration completed in 31.67 seconds
S3 download completed in 12.702 seconds
File Execution completed in 1156.671 seconds
S3 upload completed in 1.342 seconds
Terminated at : Thu Oct 26 2017 04:16:21 GMT-0400 (Eastern Daylight Time)
Total time : 1202.607 seconds
Baseline Completed
--------------------------------------------------------------------------------------
--------------------------------------------------------------------------------------
Server Id : i-0e798edc4a7598d09
Started at : Thu Oct 26 2017 03:56:18 GMT-0400 (Eastern Daylight Time)
Configuration completed in 96.28 seconds
S3 download completed in 22.015 seconds
File Execution completed in 1170.603 seconds
S3 upload completed in 1.677 seconds
Terminated at : Thu Oct 26 2017 04:17:49 GMT-0400 (Eastern Daylight Time)
Total time : 1290.801 seconds
Baseline Completed
--------------------------------------------------------------------------------------
--------------------------------------------------------------------------------------
Server Id : i-0159c4b4dfc3169e6
Started at : Thu Oct 26 2017 03:56:18 GMT-0400 (Eastern Daylight Time)
Configuration completed in 26.654 seconds
S3 download completed in 17.576 seconds
File Execution completed in 1190.215 seconds
S3 upload completed in 1.269 seconds
Terminated at : Thu Oct 26 2017 04:16:54 GMT-0400 (Eastern Daylight Time)
Total time : 1235.928 seconds
Baseline Completed
--------------------------------------------------------------------------------------
--------------------------------------------------------------------------------------
Server Id : i-0cac7b4a6f4505053
Started at : Thu Oct 26 2017 03:56:21 GMT-0400 (Eastern Daylight Time)
Configuration completed in 32.553 seconds
S3 download completed in 9.73 seconds
File Execution completed in 1166.266 seconds
S3 upload completed in 1.391 seconds
Terminated at : Thu Oct 26 2017 04:16:31 GMT-0400 (Eastern Daylight Time)
Total time : 1210.168 seconds
Baseline Completed
--------------------------------------------------------------------------------------
--------------------------------------------------------------------------------------
Server Id : i-0a020459574a4ed8a
Started at : Thu Oct 26 2017 03:56:21 GMT-0400 (Eastern Daylight Time)
Configuration completed in 28.331 seconds
S3 download completed in 13.837 seconds
File Execution completed in 1138.845 seconds
S3 upload completed in 1.421 seconds
Terminated at : Thu Oct 26 2017 04:16:04 GMT-0400 (Eastern Daylight Time)
Total time : 1182.641 seconds
Baseline Completed
--------------------------------------------------------------------------------------
--------------------------------------------------------------------------------------
Server Id : i-062297fb147f08674
Started at : Thu Oct 26 2017 03:56:21 GMT-0400 (Eastern Daylight Time)
Configuration completed in 96.956 seconds
S3 download completed in 32.025 seconds
File Execution completed in 1166.694 seconds
S3 upload completed in 1.231 seconds
Terminated at : Thu Oct 26 2017 04:17:58 GMT-0400 (Eastern Daylight Time)
Total time : 1297.124 seconds
Baseline Completed
--------------------------------------------------------------------------------------
--------------------------------------------------------------------------------------
Server Id : i-0b1c65a73c4586b7e
Started at : Thu Oct 26 2017 03:56:21 GMT-0400 (Eastern Daylight Time)
Configuration completed in 27.452 seconds
S3 download completed in 21.629 seconds
File Execution completed in 1194.543 seconds
S3 upload completed in 1.265 seconds
Terminated at : Thu Oct 26 2017 04:17:06 GMT-0400 (Eastern Daylight Time)
Total time : 1245.101 seconds
Baseline Completed
--------------------------------------------------------------------------------------
--------------------------------------------------------------------------------------
Server Id : i-0f9b8e1e93d5790c7
Started at : Thu Oct 26 2017 03:56:21 GMT-0400 (Eastern Daylight Time)
Configuration completed in 33.291 seconds
S3 download completed in 9.754 seconds
File Execution completed in 1160.713 seconds
S3 upload completed in 1.608 seconds
Terminated at : Thu Oct 26 2017 04:16:27 GMT-0400 (Eastern Daylight Time)
Total time : 1205.58 seconds
Baseline Completed
--------------------------------------------------------------------------------------
--------------------------------------------------------------------------------------
Server Id : i-0ec3710c3476804e9
Started at : Thu Oct 26 2017 03:56:25 GMT-0400 (Eastern Daylight Time)
Configuration completed in 29.4 seconds
S3 download completed in 15.928 seconds
File Execution completed in 1191.547 seconds
S3 upload completed in 1.352 seconds
Terminated at : Thu Oct 26 2017 04:17:03 GMT-0400 (Eastern Daylight Time)
Total time : 1238.457 seconds
Baseline Completed
--------------------------------------------------------------------------------------
--------------------------------------------------------------------------------------
Server Id : i-09d8d188082779a30
Started at : Thu Oct 26 2017 03:56:25 GMT-0400 (Eastern Daylight Time)
Configuration completed in 31.91 seconds
S3 download completed in 27.402 seconds
File Execution completed in 1131.961 seconds
S3 upload completed in 1.33 seconds
Terminated at : Thu Oct 26 2017 04:16:18 GMT-0400 (Eastern Daylight Time)
Total time : 1192.804 seconds
Baseline Completed
--------------------------------------------------------------------------------------
--------------------------------------------------------------------------------------
Server Id : i-09c844b436bbe5bc6
Started at : Thu Oct 26 2017 03:56:25 GMT-0400 (Eastern Daylight Time)
Configuration completed in 32.835 seconds
S3 download completed in 16.573 seconds
File Execution completed in 1173.316 seconds
S3 upload completed in 1.526 seconds
Terminated at : Thu Oct 26 2017 04:16:50 GMT-0400 (Eastern Daylight Time)
Total time : 1224.49 seconds
Baseline Completed
--------------------------------------------------------------------------------------
--------------------------------------------------------------------------------------
Server Id : i-0619c1f5c66f070dc
Started at : Thu Oct 26 2017 03:56:25 GMT-0400 (Eastern Daylight Time)
Configuration completed in 30.92 seconds
S3 download completed in 20.144 seconds
File Execution completed in 1148.743 seconds
S3 upload completed in 1.897 seconds
Terminated at : Thu Oct 26 2017 04:16:27 GMT-0400 (Eastern Daylight Time)
Total time : 1201.937 seconds
Baseline Completed
--------------------------------------------------------------------------------------
--------------------------------------------------------------------------------------
Server Id : i-02f0b3e1e816319e6
Started at : Thu Oct 26 2017 03:56:25 GMT-0400 (Eastern Daylight Time)
Configuration completed in 41.274 seconds
S3 download completed in 19.86 seconds
File Execution completed in 1137.295 seconds
S3 upload completed in 1.357 seconds
Terminated at : Thu Oct 26 2017 04:16:25 GMT-0400 (Eastern Daylight Time)
Total time : 1200.011 seconds
Baseline Completed
--------------------------------------------------------------------------------------
--------------------------------------------------------------------------------------
Server Id : i-05d850a8b95e9ff76
Started at : Thu Oct 26 2017 03:56:29 GMT-0400 (Eastern Daylight Time)
Configuration completed in 44.241 seconds
S3 download completed in 29.561 seconds
File Execution completed in 1142.679 seconds
S3 upload completed in 1.277 seconds
Terminated at : Thu Oct 26 2017 04:16:47 GMT-0400 (Eastern Daylight Time)
Total time : 1217.979 seconds
Baseline Completed
--------------------------------------------------------------------------------------
--------------------------------------------------------------------------------------
Server Id : i-051245146a5778fb5
Started at : Thu Oct 26 2017 03:56:29 GMT-0400 (Eastern Daylight Time)
Configuration completed in 93.296 seconds
S3 download completed in 32.287 seconds
File Execution completed in 1149.907 seconds
S3 upload completed in 1.323 seconds
Terminated at : Thu Oct 26 2017 04:17:46 GMT-0400 (Eastern Daylight Time)
Total time : 1277.025 seconds
Baseline Completed
--------------------------------------------------------------------------------------
--------------------------------------------------------------------------------------
Server Id : i-0fa8fc7c10e45e044
Started at : Thu Oct 26 2017 03:56:29 GMT-0400 (Eastern Daylight Time)
Configuration completed in 31.229 seconds
S3 download completed in 14.493 seconds
File Execution completed in 1122.733 seconds
S3 upload completed in 1.549 seconds
Terminated at : Thu Oct 26 2017 04:15:59 GMT-0400 (Eastern Daylight Time)
Total time : 1170.223 seconds
Baseline Completed
--------------------------------------------------------------------------------------
--------------------------------------------------------------------------------------
Server Id : i-0a26a5eb43ab445cc
Started at : Thu Oct 26 2017 03:56:29 GMT-0400 (Eastern Daylight Time)
Configuration completed in 30.11 seconds
S3 download completed in 15.49 seconds
File Execution completed in 1121.361 seconds
S3 upload completed in 1.542 seconds
Terminated at : Thu Oct 26 2017 04:15:57 GMT-0400 (Eastern Daylight Time)
Total time : 1168.704 seconds
Baseline Completed
--------------------------------------------------------------------------------------
--------------------------------------------------------------------------------------
Server Id : i-08bbcbe36ac9940ae
Started at : Thu Oct 26 2017 03:56:29 GMT-0400 (Eastern Daylight Time)
Configuration completed in 44.708 seconds
S3 download completed in 12.307 seconds
File Execution completed in 497.812 seconds
S3 upload completed in 1.426 seconds
Terminated at : Thu Oct 26 2017 04:05:45 GMT-0400 (Eastern Daylight Time)
Total time : 556.476 seconds
Baseline Completed
--------------------------------------------------------------------------------------
--------------------------------------------------------------------------------------
Server Id : i-03e86db9a5166414c
Started at : Thu Oct 26 2017 03:56:32 GMT-0400 (Eastern Daylight Time)
Configuration completed in 27.505 seconds
S3 download completed in 20.813 seconds
File Execution completed in 1119.136 seconds
S3 upload completed in 1.403 seconds
Terminated at : Thu Oct 26 2017 04:16:01 GMT-0400 (Eastern Daylight Time)
Total time : 1169.075 seconds
Baseline Completed
--------------------------------------------------------------------------------------
--------------------------------------------------------------------------------------
Server Id : i-072542586c19983f4
Started at : Thu Oct 26 2017 03:56:32 GMT-0400 (Eastern Daylight Time)
Configuration completed in 56.337 seconds
S3 download completed in 27.766 seconds
File Execution completed in 1207.559 seconds
S3 upload completed in 1.207 seconds
Terminated at : Thu Oct 26 2017 04:18:05 GMT-0400 (Eastern Daylight Time)
Total time : 1293.055 seconds
Baseline Completed
--------------------------------------------------------------------------------------
--------------------------------------------------------------------------------------
Server Id : i-00a5c198b0f65e4c5
Started at : Thu Oct 26 2017 03:56:32 GMT-0400 (Eastern Daylight Time)
Configuration completed in 33.441 seconds
S3 download completed in 24.763 seconds
File Execution completed in 1236.441 seconds
S3 upload completed in 1.246 seconds
Terminated at : Thu Oct 26 2017 04:18:08 GMT-0400 (Eastern Daylight Time)
Total time : 1296.113 seconds
Baseline Completed
--------------------------------------------------------------------------------------
--------------------------------------------------------------------------------------
Server Id : i-07e405bb96b4e6a5f
Started at : Thu Oct 26 2017 03:56:32 GMT-0400 (Eastern Daylight Time)
Configuration completed in 26.224 seconds
S3 download completed in 17.914 seconds
File Execution completed in 1131.973 seconds
S3 upload completed in 1.418 seconds
Terminated at : Thu Oct 26 2017 04:16:10 GMT-0400 (Eastern Daylight Time)
Total time : 1177.764 seconds
Baseline Completed
--------------------------------------------------------------------------------------
--------------------------------------------------------------------------------------
Server Id : i-06b4c34cf70b09f1c
Started at : Thu Oct 26 2017 03:56:32 GMT-0400 (Eastern Daylight Time)
Configuration completed in 32.486 seconds
S3 download completed in 17.626 seconds
File Execution completed in 1241.995 seconds
S3 upload completed in 1.862 seconds
Terminated at : Thu Oct 26 2017 04:18:06 GMT-0400 (Eastern Daylight Time)
Total time : 1294.214 seconds
Baseline Completed
--------------------------------------------------------------------------------------
--------------------------------------------------------------------------------------
Server Id : i-0728e198685e94448
Started at : Thu Oct 26 2017 03:56:35 GMT-0400 (Eastern Daylight Time)
Configuration completed in 74.008 seconds
S3 download completed in 18.789 seconds
File Execution completed in 1201.241 seconds
S3 upload completed in 1.56 seconds
Terminated at : Thu Oct 26 2017 04:18:11 GMT-0400 (Eastern Daylight Time)
Total time : 1295.819 seconds
Baseline Completed
--------------------------------------------------------------------------------------
--------------------------------------------------------------------------------------
Server Id : i-02acc52f7561851c1
Started at : Thu Oct 26 2017 03:56:36 GMT-0400 (Eastern Daylight Time)
Configuration completed in 30.918 seconds
S3 download completed in 27.733 seconds
File Execution completed in 1204.688 seconds
S3 upload completed in 1.56 seconds
Terminated at : Thu Oct 26 2017 04:17:41 GMT-0400 (Eastern Daylight Time)
Total time : 1265.113 seconds
Baseline Completed
--------------------------------------------------------------------------------------
--------------------------------------------------------------------------------------
Server Id : i-070435cbadb51f65f
Started at : Thu Oct 26 2017 03:56:36 GMT-0400 (Eastern Daylight Time)
Configuration completed in 34.471 seconds
S3 download completed in 27.805 seconds
File Execution completed in 1180.883 seconds
S3 upload completed in 1.315 seconds
Terminated at : Thu Oct 26 2017 04:17:21 GMT-0400 (Eastern Daylight Time)
Total time : 1244.696 seconds
Baseline Completed
--------------------------------------------------------------------------------------
--------------------------------------------------------------------------------------
Server Id : i-0a7143a4129bf0d97
Started at : Thu Oct 26 2017 03:56:36 GMT-0400 (Eastern Daylight Time)
Configuration completed in 31.736 seconds
S3 download completed in 30.653 seconds
File Execution completed in 1205.243 seconds
S3 upload completed in 1.594 seconds
Terminated at : Thu Oct 26 2017 04:17:46 GMT-0400 (Eastern Daylight Time)
Total time : 1269.473 seconds
Baseline Completed
--------------------------------------------------------------------------------------
--------------------------------------------------------------------------------------
Server Id : i-01c8127801693e5ca
Started at : Thu Oct 26 2017 03:56:36 GMT-0400 (Eastern Daylight Time)
Configuration completed in 39.166 seconds
S3 download completed in 30.996 seconds
File Execution completed in 1225.651 seconds
S3 upload completed in 1.71 seconds
Terminated at : Thu Oct 26 2017 04:18:14 GMT-0400 (Eastern Daylight Time)
Total time : 1297.744 seconds
Baseline Completed
--------------------------------------------------------------------------------------
--------------------------------------------------------------------------------------
Server Id : i-0958bfbdaeca71a17
Started at : Thu Oct 26 2017 03:56:40 GMT-0400 (Eastern Daylight Time)
Configuration completed in 31.154 seconds
S3 download completed in 25.477 seconds
File Execution completed in 1205.229 seconds
S3 upload completed in 1.347 seconds
Terminated at : Thu Oct 26 2017 04:17:43 GMT-0400 (Eastern Daylight Time)
Total time : 1263.453 seconds
Baseline Completed
--------------------------------------------------------------------------------------
--------------------------------------------------------------------------------------
Server Id : i-01550eee80bf89fcb
Started at : Thu Oct 26 2017 03:56:40 GMT-0400 (Eastern Daylight Time)
Configuration completed in 30.848 seconds
S3 download completed in 17.704 seconds
File Execution completed in 1193.065 seconds
S3 upload completed in 1.737 seconds
Terminated at : Thu Oct 26 2017 04:17:23 GMT-0400 (Eastern Daylight Time)
Total time : 1243.577 seconds
Baseline Completed
--------------------------------------------------------------------------------------
--------------------------------------------------------------------------------------
Server Id : i-085fb9e490119844d
Started at : Thu Oct 26 2017 03:56:40 GMT-0400 (Eastern Daylight Time)
Configuration completed in 31.088 seconds
S3 download completed in 5.659 seconds
File Execution completed in 432.304 seconds
S3 upload completed in 1.125 seconds
Terminated at : Thu Oct 26 2017 04:04:30 GMT-0400 (Eastern Daylight Time)
Total time : 470.346 seconds
Baseline Completed
--------------------------------------------------------------------------------------
--------------------------------------------------------------------------------------
Server Id : i-04ef24aa61a8be3e9
Started at : Thu Oct 26 2017 03:56:40 GMT-0400 (Eastern Daylight Time)
Configuration completed in 41.554 seconds
S3 download completed in 22.837 seconds
File Execution completed in 1228.829 seconds
S3 upload completed in 1.407 seconds
Terminated at : Thu Oct 26 2017 04:18:15 GMT-0400 (Eastern Daylight Time)
Total time : 1294.839 seconds
Baseline Completed
--------------------------------------------------------------------------------------
--------------------------------------------------------------------------------------
Server Id : i-0a7dd691f1311d4d2
Started at : Thu Oct 26 2017 03:56:40 GMT-0400 (Eastern Daylight Time)
Configuration completed in 28.94 seconds
S3 download completed in 14.692 seconds
File Execution completed in 1232.591 seconds
S3 upload completed in 1.338 seconds
Terminated at : Thu Oct 26 2017 04:17:58 GMT-0400 (Eastern Daylight Time)
Total time : 1277.727 seconds
Baseline Completed
--------------------------------------------------------------------------------------
--------------------------------------------------------------------------------------
Server Id : i-05ca7d8dd583fb601
Started at : Thu Oct 26 2017 03:56:43 GMT-0400 (Eastern Daylight Time)
Configuration completed in 32.34 seconds
S3 download completed in 32.906 seconds
File Execution completed in 1182.849 seconds
S3 upload completed in 1.399 seconds
Terminated at : Thu Oct 26 2017 04:17:33 GMT-0400 (Eastern Daylight Time)
Total time : 1249.736 seconds
Baseline Completed
--------------------------------------------------------------------------------------
--------------------------------------------------------------------------------------
Server Id : i-01737e0616a01aa5d
Started at : Thu Oct 26 2017 03:56:43 GMT-0400 (Eastern Daylight Time)
Configuration completed in 30.768 seconds
S3 download completed in 28.153 seconds
File Execution completed in 1227.473 seconds
S3 upload completed in 1.19 seconds
Terminated at : Thu Oct 26 2017 04:18:11 GMT-0400 (Eastern Daylight Time)
Total time : 1287.78 seconds
Baseline Completed
--------------------------------------------------------------------------------------
--------------------------------------------------------------------------------------
Server Id : i-0018f2899b7fa890d
Started at : Thu Oct 26 2017 03:56:43 GMT-0400 (Eastern Daylight Time)
Configuration completed in 27.28 seconds
S3 download completed in 18.433 seconds
File Execution completed in 1190.794 seconds
S3 upload completed in 1.428 seconds
Terminated at : Thu Oct 26 2017 04:17:22 GMT-0400 (Eastern Daylight Time)
Total time : 1238.145 seconds
Baseline Completed
--------------------------------------------------------------------------------------
--------------------------------------------------------------------------------------
Server Id : i-0337a0744b984f4a7
Started at : Thu Oct 26 2017 03:56:44 GMT-0400 (Eastern Daylight Time)
Configuration completed in 28.597 seconds
S3 download completed in 19.158 seconds
File Execution completed in 1204.08 seconds
S3 upload completed in 1.222 seconds
Terminated at : Thu Oct 26 2017 04:17:37 GMT-0400 (Eastern Daylight Time)
Total time : 1253.23 seconds
Baseline Completed
--------------------------------------------------------------------------------------
--------------------------------------------------------------------------------------
Server Id : i-0762e8ff87ff41a64
Started at : Thu Oct 26 2017 03:56:44 GMT-0400 (Eastern Daylight Time)
Configuration completed in 29.39 seconds
S3 download completed in 25.398 seconds
File Execution completed in 1238.01 seconds
S3 upload completed in 1.278 seconds
Terminated at : Thu Oct 26 2017 04:18:18 GMT-0400 (Eastern Daylight Time)
Total time : 1294.318 seconds
Baseline Completed
--------------------------------------------------------------------------------------
--------------------------------------------------------------------------------------
Server Id : i-01274271f540fc711
Started at : Thu Oct 26 2017 03:56:48 GMT-0400 (Eastern Daylight Time)
Configuration completed in 31.682 seconds
S3 download completed in 37.095 seconds
File Execution completed in 1258.851 seconds
S3 upload completed in 1.279 seconds
Terminated at : Thu Oct 26 2017 04:18:57 GMT-0400 (Eastern Daylight Time)
Total time : 1329.141 seconds
Baseline Completed
--------------------------------------------------------------------------------------
--------------------------------------------------------------------------------------
Server Id : i-0f700bc7bb9d175de
Started at : Thu Oct 26 2017 03:56:48 GMT-0400 (Eastern Daylight Time)
Configuration completed in 36.2 seconds
S3 download completed in 20.384 seconds
File Execution completed in 934.889 seconds
S3 upload completed in 1.162 seconds
Terminated at : Thu Oct 26 2017 04:13:20 GMT-0400 (Eastern Daylight Time)
Total time : 992.831 seconds
Baseline Completed
--------------------------------------------------------------------------------------
--------------------------------------------------------------------------------------
Server Id : i-077e4271b37857b8b
Started at : Thu Oct 26 2017 03:56:48 GMT-0400 (Eastern Daylight Time)
Configuration completed in 50.283 seconds
S3 download completed in 25.708 seconds
File Execution completed in 1209.202 seconds
S3 upload completed in 1.704 seconds
Terminated at : Thu Oct 26 2017 04:18:15 GMT-0400 (Eastern Daylight Time)
Total time : 1287.159 seconds
Baseline Completed
--------------------------------------------------------------------------------------
--------------------------------------------------------------------------------------
Server Id : i-01713e4e69366f6bd
Started at : Thu Oct 26 2017 03:56:48 GMT-0400 (Eastern Daylight Time)
Configuration completed in 51.658 seconds
S3 download completed in 19.358 seconds
File Execution completed in 839.842 seconds
S3 upload completed in 1.242 seconds
Terminated at : Thu Oct 26 2017 04:12:00 GMT-0400 (Eastern Daylight Time)
Total time : 912.289 seconds
Baseline Completed
--------------------------------------------------------------------------------------
--------------------------------------------------------------------------------------
Server Id : i-04515b1f211bcc460
Started at : Thu Oct 26 2017 03:56:48 GMT-0400 (Eastern Daylight Time)
Configuration completed in 38.762 seconds
S3 download completed in 21.882 seconds
File Execution completed in 1152.094 seconds
S3 upload completed in 1.687 seconds
Terminated at : Thu Oct 26 2017 04:17:02 GMT-0400 (Eastern Daylight Time)
Total time : 1214.656 seconds
Baseline Completed
--------------------------------------------------------------------------------------
--------------------------------------------------------------------------------------
Server Id : i-09e5e6a43701257c8
Started at : Thu Oct 26 2017 03:56:51 GMT-0400 (Eastern Daylight Time)
Configuration completed in 36.022 seconds
S3 download completed in 34.102 seconds
File Execution completed in 1240.395 seconds
S3 upload completed in 1.474 seconds
Terminated at : Thu Oct 26 2017 04:18:43 GMT-0400 (Eastern Daylight Time)
Total time : 1312.225 seconds
Baseline Completed
--------------------------------------------------------------------------------------
--------------------------------------------------------------------------------------
Server Id : i-0a6b9c6e22a9b7c5e
Started at : Thu Oct 26 2017 03:56:51 GMT-0400 (Eastern Daylight Time)
Configuration completed in 60.827 seconds
S3 download completed in 13.978 seconds
File Execution completed in 1140.918 seconds
S3 upload completed in 1.092 seconds
Terminated at : Thu Oct 26 2017 04:17:08 GMT-0400 (Eastern Daylight Time)
Total time : 1216.992 seconds
Baseline Completed
--------------------------------------------------------------------------------------
--------------------------------------------------------------------------------------
Server Id : i-02c727acf14eeae68
Started at : Thu Oct 26 2017 03:56:51 GMT-0400 (Eastern Daylight Time)
Configuration completed in 33.25 seconds
S3 download completed in 16.57 seconds
File Execution completed in 565.493 seconds
S3 upload completed in 1.553 seconds
Terminated at : Thu Oct 26 2017 04:07:08 GMT-0400 (Eastern Daylight Time)
Total time : 617.102 seconds
Baseline Completed
--------------------------------------------------------------------------------------
--------------------------------------------------------------------------------------
Server Id : i-070772476c30b5973
Started at : Thu Oct 26 2017 03:56:51 GMT-0400 (Eastern Daylight Time)
Configuration completed in 32.613 seconds
S3 download completed in 34.619 seconds
File Execution completed in 1217.102 seconds
S3 upload completed in 1.401 seconds
Terminated at : Thu Oct 26 2017 04:18:17 GMT-0400 (Eastern Daylight Time)
Total time : 1285.954 seconds
Baseline Completed
--------------------------------------------------------------------------------------
--------------------------------------------------------------------------------------
Server Id : i-0e8cc49b03f6f231b
Started at : Thu Oct 26 2017 03:56:52 GMT-0400 (Eastern Daylight Time)
Configuration completed in 31.882 seconds
S3 download completed in 28.325 seconds
File Execution completed in 1234.306 seconds
S3 upload completed in 1.182 seconds
Terminated at : Thu Oct 26 2017 04:18:27 GMT-0400 (Eastern Daylight Time)
Total time : 1295.888 seconds
Baseline Completed
--------------------------------------------------------------------------------------
--------------------------------------------------------------------------------------
Server Id : i-0823132ad78a165b2
Started at : Thu Oct 26 2017 03:56:55 GMT-0400 (Eastern Daylight Time)
Configuration completed in 35.309 seconds
S3 download completed in 31.333 seconds
File Execution completed in 1245.281 seconds
S3 upload completed in 1.233 seconds
Terminated at : Thu Oct 26 2017 04:18:48 GMT-0400 (Eastern Daylight Time)
Total time : 1313.373 seconds
Baseline Completed
--------------------------------------------------------------------------------------
--------------------------------------------------------------------------------------
Server Id : i-05e22b6992f5c56e5
Started at : Thu Oct 26 2017 03:56:55 GMT-0400 (Eastern Daylight Time)
Configuration completed in 32.505 seconds
S3 download completed in 32.54 seconds
File Execution completed in 1243.363 seconds
S3 upload completed in 1.251 seconds
Terminated at : Thu Oct 26 2017 04:18:45 GMT-0400 (Eastern Daylight Time)
Total time : 1309.852 seconds
Baseline Completed
--------------------------------------------------------------------------------------
--------------------------------------------------------------------------------------
Server Id : i-033f73642ad34e3aa
Started at : Thu Oct 26 2017 03:56:55 GMT-0400 (Eastern Daylight Time)
Configuration completed in 35.307 seconds
S3 download completed in 30.999 seconds
File Execution completed in 1243.235 seconds
S3 upload completed in 1.404 seconds
Terminated at : Thu Oct 26 2017 04:18:46 GMT-0400 (Eastern Daylight Time)
Total time : 1311.178 seconds
Baseline Completed
--------------------------------------------------------------------------------------
--------------------------------------------------------------------------------------
Server Id : i-0e9fc82d39c253fa2
Started at : Thu Oct 26 2017 03:56:56 GMT-0400 (Eastern Daylight Time)
Configuration completed in 32.919 seconds
S3 download completed in 19.772 seconds
File Execution completed in 1145.981 seconds
S3 upload completed in 1.694 seconds
Terminated at : Thu Oct 26 2017 04:16:56 GMT-0400 (Eastern Daylight Time)
Total time : 1200.584 seconds
Baseline Completed
--------------------------------------------------------------------------------------
--------------------------------------------------------------------------------------
Server Id : i-0677611167e2bb22f
Started at : Thu Oct 26 2017 03:56:56 GMT-0400 (Eastern Daylight Time)
Configuration completed in 29.042 seconds
S3 download completed in 33.868 seconds
File Execution completed in 1200.273 seconds
S3 upload completed in 1.43 seconds
Terminated at : Thu Oct 26 2017 04:18:00 GMT-0400 (Eastern Daylight Time)
Total time : 1264.844 seconds
Baseline Completed
--------------------------------------------------------------------------------------
--------------------------------------------------------------------------------------
Server Id : i-02dac175bfcc90c70
Started at : Thu Oct 26 2017 03:56:59 GMT-0400 (Eastern Daylight Time)
Configuration completed in 32.923 seconds
S3 download completed in 29.408 seconds
File Execution completed in 1255.548 seconds
S3 upload completed in 1.726 seconds
Terminated at : Thu Oct 26 2017 04:18:59 GMT-0400 (Eastern Daylight Time)
Total time : 1319.834 seconds
Baseline Completed
--------------------------------------------------------------------------------------
--------------------------------------------------------------------------------------
Server Id : i-0d8a8b2a1583c21ad
Started at : Thu Oct 26 2017 03:56:59 GMT-0400 (Eastern Daylight Time)
Configuration completed in 36.084 seconds
S3 download completed in 25.042 seconds
File Execution completed in 1148.529 seconds
S3 upload completed in 1.381 seconds
Terminated at : Thu Oct 26 2017 04:17:11 GMT-0400 (Eastern Daylight Time)
Total time : 1211.272 seconds
Baseline Completed
--------------------------------------------------------------------------------------
--------------------------------------------------------------------------------------
Server Id : i-0a53ee314e5592fb5
Started at : Thu Oct 26 2017 03:56:59 GMT-0400 (Eastern Daylight Time)
Configuration completed in 36.046 seconds
S3 download completed in 27.372 seconds
File Execution completed in 1207.324 seconds
S3 upload completed in 1.276 seconds
Terminated at : Thu Oct 26 2017 04:18:12 GMT-0400 (Eastern Daylight Time)
Total time : 1272.246 seconds
Baseline Completed
--------------------------------------------------------------------------------------
--------------------------------------------------------------------------------------
Server Id : i-02239762d5821d4a1
Started at : Thu Oct 26 2017 03:56:59 GMT-0400 (Eastern Daylight Time)
Configuration completed in 39.034 seconds
S3 download completed in 24.912 seconds
File Execution completed in 1119.961 seconds
S3 upload completed in 1.374 seconds
Terminated at : Thu Oct 26 2017 04:16:45 GMT-0400 (Eastern Daylight Time)
Total time : 1185.499 seconds
Baseline Completed
--------------------------------------------------------------------------------------
--------------------------------------------------------------------------------------
Server Id : i-00cb5786f02f7cc73
Started at : Thu Oct 26 2017 03:56:59 GMT-0400 (Eastern Daylight Time)
Configuration completed in 43.091 seconds
S3 download completed in 23.735 seconds
File Execution completed in 1246.251 seconds
S3 upload completed in 1.403 seconds
Terminated at : Thu Oct 26 2017 04:18:54 GMT-0400 (Eastern Daylight Time)
Total time : 1314.7 seconds
Baseline Completed
--------------------------------------------------------------------------------------
--------------------------------------------------------------------------------------
Server Id : i-054abae11df45078c
Started at : Thu Oct 26 2017 03:57:03 GMT-0400 (Eastern Daylight Time)
Configuration completed in 25.857 seconds
S3 download completed in 32.336 seconds
File Execution completed in 1129.266 seconds
S3 upload completed in 1.837 seconds
Terminated at : Thu Oct 26 2017 04:16:53 GMT-0400 (Eastern Daylight Time)
Total time : 1189.523 seconds
Baseline Completed
--------------------------------------------------------------------------------------
--------------------------------------------------------------------------------------
Server Id : i-0d1cb6641ec7af044
Started at : Thu Oct 26 2017 03:57:03 GMT-0400 (Eastern Daylight Time)
Configuration completed in 30.72 seconds
S3 download completed in 28.584 seconds
File Execution completed in 1234.929 seconds
S3 upload completed in 2.531 seconds
Terminated at : Thu Oct 26 2017 04:18:40 GMT-0400 (Eastern Daylight Time)
Total time : 1296.976 seconds
Baseline Completed
--------------------------------------------------------------------------------------
--------------------------------------------------------------------------------------
Server Id : i-096c54a1cdf532ef2
Started at : Thu Oct 26 2017 03:57:03 GMT-0400 (Eastern Daylight Time)
Configuration completed in 31.318 seconds
S3 download completed in 23.519 seconds
File Execution completed in 1116.07 seconds
S3 upload completed in 1.176 seconds
Terminated at : Thu Oct 26 2017 04:16:36 GMT-0400 (Eastern Daylight Time)
Total time : 1172.261 seconds
Baseline Completed
--------------------------------------------------------------------------------------
--------------------------------------------------------------------------------------
Server Id : i-0321cc0185fe44f44
Started at : Thu Oct 26 2017 03:57:03 GMT-0400 (Eastern Daylight Time)
Configuration completed in 32.595 seconds
S3 download completed in 26.726 seconds
File Execution completed in 1202.152 seconds
S3 upload completed in 1.272 seconds
Terminated at : Thu Oct 26 2017 04:18:06 GMT-0400 (Eastern Daylight Time)
Total time : 1262.973 seconds
Baseline Completed
--------------------------------------------------------------------------------------
--------------------------------------------------------------------------------------
Server Id : i-05628d015eb5de41e
Started at : Thu Oct 26 2017 03:57:03 GMT-0400 (Eastern Daylight Time)
Configuration completed in 55.312 seconds
S3 download completed in 29.893 seconds
File Execution completed in 1133.458 seconds
S3 upload completed in 1.222 seconds
Terminated at : Thu Oct 26 2017 04:17:23 GMT-0400 (Eastern Daylight Time)
Total time : 1220.085 seconds
Baseline Completed
--------------------------------------------------------------------------------------
--------------------------------------------------------------------------------------
Server Id : i-0cfd7ce10bc70a895
Started at : Thu Oct 26 2017 03:57:06 GMT-0400 (Eastern Daylight Time)
Configuration completed in 32.724 seconds
S3 download completed in 22.077 seconds
File Execution completed in 1170.761 seconds
S3 upload completed in 1.311 seconds
Terminated at : Thu Oct 26 2017 04:17:33 GMT-0400 (Eastern Daylight Time)
Total time : 1227.06 seconds
Baseline Completed
--------------------------------------------------------------------------------------
--------------------------------------------------------------------------------------
Server Id : i-06d7ae4d02f1db614
Started at : Thu Oct 26 2017 03:57:06 GMT-0400 (Eastern Daylight Time)
Configuration completed in 35.442 seconds
S3 download completed in 21.712 seconds
File Execution completed in 1150.264 seconds
S3 upload completed in 1.164 seconds
Terminated at : Thu Oct 26 2017 04:17:15 GMT-0400 (Eastern Daylight Time)
Total time : 1208.787 seconds
Baseline Completed
--------------------------------------------------------------------------------------
--------------------------------------------------------------------------------------
Server Id : i-044de56549263f9d5
Started at : Thu Oct 26 2017 03:57:06 GMT-0400 (Eastern Daylight Time)
Configuration completed in 43.773 seconds
S3 download completed in 14.254 seconds
File Execution completed in 1252.8 seconds
S3 upload completed in 1.295 seconds
Terminated at : Thu Oct 26 2017 04:18:59 GMT-0400 (Eastern Daylight Time)
Total time : 1312.342 seconds
Baseline Completed
--------------------------------------------------------------------------------------
--------------------------------------------------------------------------------------
Server Id : i-07c3e007cb29e10e2
Started at : Thu Oct 26 2017 03:57:06 GMT-0400 (Eastern Daylight Time)
Configuration completed in 34.842 seconds
S3 download completed in 23.157 seconds
File Execution completed in 1123.674 seconds
S3 upload completed in 1.334 seconds
Terminated at : Thu Oct 26 2017 04:16:50 GMT-0400 (Eastern Daylight Time)
Total time : 1183.224 seconds
Baseline Completed
--------------------------------------------------------------------------------------
--------------------------------------------------------------------------------------
Server Id : i-0d73223eeb9009de5
Started at : Thu Oct 26 2017 03:57:06 GMT-0400 (Eastern Daylight Time)
Configuration completed in 48.662 seconds
S3 download completed in 21.295 seconds
File Execution completed in 1123.879 seconds
S3 upload completed in 1.342 seconds
Terminated at : Thu Oct 26 2017 04:17:02 GMT-0400 (Eastern Daylight Time)
Total time : 1195.396 seconds
Baseline Completed
--------------------------------------------------------------------------------------
--------------------------------------------------------------------------------------
Server Id : i-02d5ef76da56c1bf2
Started at : Thu Oct 26 2017 03:57:10 GMT-0400 (Eastern Daylight Time)
Configuration completed in 34.804 seconds
S3 download completed in 16.97 seconds
File Execution completed in 1143.34 seconds
S3 upload completed in 1.341 seconds
Terminated at : Thu Oct 26 2017 04:17:06 GMT-0400 (Eastern Daylight Time)
Total time : 1196.665 seconds
Baseline Completed
--------------------------------------------------------------------------------------
--------------------------------------------------------------------------------------
Server Id : i-06ec471af7846bd10
Started at : Thu Oct 26 2017 03:57:10 GMT-0400 (Eastern Daylight Time)
Configuration completed in 35.019 seconds
S3 download completed in 21.616 seconds
File Execution completed in 1231.128 seconds
S3 upload completed in 1.506 seconds
Terminated at : Thu Oct 26 2017 04:18:39 GMT-0400 (Eastern Daylight Time)
Total time : 1289.498 seconds
Baseline Completed
--------------------------------------------------------------------------------------
--------------------------------------------------------------------------------------
Server Id : i-00432e3bd1ada2c3d
Started at : Thu Oct 26 2017 03:57:10 GMT-0400 (Eastern Daylight Time)
Configuration completed in 35.966 seconds
S3 download completed in 22.633 seconds
File Execution completed in 1165.115 seconds
S3 upload completed in 1.323 seconds
Terminated at : Thu Oct 26 2017 04:17:35 GMT-0400 (Eastern Daylight Time)
Total time : 1225.269 seconds
Baseline Completed
--------------------------------------------------------------------------------------
--------------------------------------------------------------------------------------
Server Id : i-0db13c030670e3611
Started at : Thu Oct 26 2017 03:57:10 GMT-0400 (Eastern Daylight Time)
Configuration completed in 34.229 seconds
S3 download completed in 19.286 seconds
File Execution completed in 1119.747 seconds
S3 upload completed in 1.126 seconds
Terminated at : Thu Oct 26 2017 04:16:44 GMT-0400 (Eastern Daylight Time)
Total time : 1174.57 seconds
Baseline Completed
--------------------------------------------------------------------------------------
--------------------------------------------------------------------------------------
Server Id : i-055a233e07cfdc3b7
Started at : Thu Oct 26 2017 03:57:10 GMT-0400 (Eastern Daylight Time)
Configuration completed in 30.9 seconds
S3 download completed in 23.592 seconds
File Execution completed in 1175.643 seconds
S3 upload completed in 1.31 seconds
Terminated at : Thu Oct 26 2017 04:17:42 GMT-0400 (Eastern Daylight Time)
Total time : 1231.654 seconds
Baseline Completed
--------------------------------------------------------------------------------------
--------------------------------------------------------------------------------------
Server Id : i-0aaffb5d8dbbd2a30
Started at : Thu Oct 26 2017 03:57:14 GMT-0400 (Eastern Daylight Time)
Configuration completed in 26.212 seconds
S3 download completed in 24.724 seconds
File Execution completed in 1168.476 seconds
S3 upload completed in 1.416 seconds
Terminated at : Thu Oct 26 2017 04:17:35 GMT-0400 (Eastern Daylight Time)
Total time : 1221.073 seconds
Baseline Completed
--------------------------------------------------------------------------------------
--------------------------------------------------------------------------------------
Server Id : i-0f6f49e0bb96e0478
Started at : Thu Oct 26 2017 03:57:14 GMT-0400 (Eastern Daylight Time)
Configuration completed in 60.162 seconds
S3 download completed in 20.553 seconds
File Execution completed in 1157.686 seconds
S3 upload completed in 1.288 seconds
Terminated at : Thu Oct 26 2017 04:17:54 GMT-0400 (Eastern Daylight Time)
Total time : 1239.896 seconds
Baseline Completed
--------------------------------------------------------------------------------------
--------------------------------------------------------------------------------------
Server Id : i-05084507f9ff1101a
Started at : Thu Oct 26 2017 03:57:14 GMT-0400 (Eastern Daylight Time)
Configuration completed in 30.476 seconds
S3 download completed in 19.121 seconds
File Execution completed in 1239.962 seconds
S3 upload completed in 1.183 seconds
Terminated at : Thu Oct 26 2017 04:18:45 GMT-0400 (Eastern Daylight Time)
Total time : 1290.935 seconds
Baseline Completed
--------------------------------------------------------------------------------------
--------------------------------------------------------------------------------------
Server Id : i-02a645ede2324c54b
Started at : Thu Oct 26 2017 03:57:14 GMT-0400 (Eastern Daylight Time)
Configuration completed in 30.236 seconds
S3 download completed in 22.321 seconds
File Execution completed in 1240.915 seconds
S3 upload completed in 1.332 seconds
Terminated at : Thu Oct 26 2017 04:18:49 GMT-0400 (Eastern Daylight Time)
Total time : 1295.026 seconds
Baseline Completed
--------------------------------------------------------------------------------------
--------------------------------------------------------------------------------------
Server Id : i-0beaaf37aacf2d68d
Started at : Thu Oct 26 2017 03:57:14 GMT-0400 (Eastern Daylight Time)
Configuration completed in 30.133 seconds
S3 download completed in 24.278 seconds
File Execution completed in 1251.343 seconds
S3 upload completed in 1.337 seconds
Terminated at : Thu Oct 26 2017 04:19:01 GMT-0400 (Eastern Daylight Time)
Total time : 1307.327 seconds
Baseline Completed
--------------------------------------------------------------------------------------
--------------------------------------------------------------------------------------
Server Id : i-0cd1c8a2a5893a579
Started at : Thu Oct 26 2017 03:57:18 GMT-0400 (Eastern Daylight Time)
Configuration completed in 31.381 seconds
S3 download completed in 25.186 seconds
File Execution completed in 1118.482 seconds
S3 upload completed in 1.195 seconds
Terminated at : Thu Oct 26 2017 04:16:54 GMT-0400 (Eastern Daylight Time)
Total time : 1176.453 seconds
Baseline Completed
--------------------------------------------------------------------------------------
--------------------------------------------------------------------------------------
Server Id : i-09b695e3f8fcca46a
Started at : Thu Oct 26 2017 03:57:18 GMT-0400 (Eastern Daylight Time)
Configuration completed in 37.411 seconds
S3 download completed in 23.373 seconds
File Execution completed in 1219.131 seconds
S3 upload completed in 1.957 seconds
Terminated at : Thu Oct 26 2017 04:18:40 GMT-0400 (Eastern Daylight Time)
Total time : 1282.102 seconds
Baseline Completed
--------------------------------------------------------------------------------------
--------------------------------------------------------------------------------------
Server Id : i-0bb95304205c0f929
Started at : Thu Oct 26 2017 03:57:18 GMT-0400 (Eastern Daylight Time)
Configuration completed in 35.851 seconds
S3 download completed in 22.99 seconds
File Execution completed in 1218.666 seconds
S3 upload completed in 1.286 seconds
Terminated at : Thu Oct 26 2017 04:18:37 GMT-0400 (Eastern Daylight Time)
Total time : 1279.022 seconds
Baseline Completed
--------------------------------------------------------------------------------------
--------------------------------------------------------------------------------------
Server Id : i-094ed3f7a4d678ab2
Started at : Thu Oct 26 2017 03:57:18 GMT-0400 (Eastern Daylight Time)
Configuration completed in 27.523 seconds
S3 download completed in 17.069 seconds
File Execution completed in 1129.973 seconds
S3 upload completed in 2.541 seconds
Terminated at : Thu Oct 26 2017 04:16:55 GMT-0400 (Eastern Daylight Time)
Total time : 1177.317 seconds
Baseline Completed
--------------------------------------------------------------------------------------
--------------------------------------------------------------------------------------
Server Id : i-0129da2a8b1f0c03f
Started at : Thu Oct 26 2017 03:57:18 GMT-0400 (Eastern Daylight Time)
Configuration completed in 31.787 seconds
S3 download completed in 20.735 seconds
File Execution completed in 1121.773 seconds
S3 upload completed in 1.289 seconds
Terminated at : Thu Oct 26 2017 04:16:54 GMT-0400 (Eastern Daylight Time)
Total time : 1175.791 seconds
Baseline Completed
--------------------------------------------------------------------------------------
--------------------------------------------------------------------------------------
Server Id : i-0968081ba3029fa1d
Started at : Thu Oct 26 2017 03:57:21 GMT-0400 (Eastern Daylight Time)
Configuration completed in 28.453 seconds
S3 download completed in 13.693 seconds
File Execution completed in 1115.322 seconds
S3 upload completed in 1.705 seconds
Terminated at : Thu Oct 26 2017 04:16:41 GMT-0400 (Eastern Daylight Time)
Total time : 1159.358 seconds
Baseline Completed
--------------------------------------------------------------------------------------
--------------------------------------------------------------------------------------
Server Id : i-0c19f49b58a5fb706
Started at : Thu Oct 26 2017 03:57:21 GMT-0400 (Eastern Daylight Time)
Configuration completed in 32.468 seconds
S3 download completed in 9.778 seconds
File Execution completed in 1122.7 seconds
S3 upload completed in 1.351 seconds
Terminated at : Thu Oct 26 2017 04:16:48 GMT-0400 (Eastern Daylight Time)
Total time : 1166.474 seconds
Baseline Completed
--------------------------------------------------------------------------------------
--------------------------------------------------------------------------------------
Server Id : i-0a540d5fe11ab2968
Started at : Thu Oct 26 2017 03:57:21 GMT-0400 (Eastern Daylight Time)
Configuration completed in 37.33 seconds
S3 download completed in 4.161 seconds
File Execution completed in 247.382 seconds
S3 upload completed in 0.96 seconds
Terminated at : Thu Oct 26 2017 04:02:11 GMT-0400 (Eastern Daylight Time)
Total time : 289.991 seconds
Baseline Completed
--------------------------------------------------------------------------------------
--------------------------------------------------------------------------------------
Server Id : i-0b647c179c6b06f3f
Started at : Thu Oct 26 2017 03:57:22 GMT-0400 (Eastern Daylight Time)
Configuration completed in 34.607 seconds
S3 download completed in 24.037 seconds
File Execution completed in 1218.419 seconds
S3 upload completed in 1.194 seconds
Terminated at : Thu Oct 26 2017 04:18:40 GMT-0400 (Eastern Daylight Time)
Total time : 1278.45 seconds
Baseline Completed
--------------------------------------------------------------------------------------
--------------------------------------------------------------------------------------
Server Id : i-08b3ed5bc1d0dc4e8
Started at : Thu Oct 26 2017 03:57:22 GMT-0400 (Eastern Daylight Time)
Configuration completed in 29.931 seconds
S3 download completed in 12.685 seconds
File Execution completed in 1125.004 seconds
S3 upload completed in 1.258 seconds
Terminated at : Thu Oct 26 2017 04:16:51 GMT-0400 (Eastern Daylight Time)
Total time : 1169.082 seconds
Baseline Completed
--------------------------------------------------------------------------------------
Socket Disconnected..
Execution Complete.
Metrics : 
Maximum configuration time : 96.956
Maximum s3 download time : 37.095
Maximum algorithm execution time : 1258.851
Maximum s3 upload time : 2.541
Server Cost : $ 0.58 
s3 Cost : $0.20550780000000002 
Approximate Execution Time : 23.257 minutes
You can now tweak the values on the left based on the current baseline to estimate cost/run-time